{
    "Characters": {
        "Skin": {
            "value": 1
        },
        "Body": {
            "value": 1
        },
        "Iris": {
            "value": 2,
            "color": "#87ceeb"
        },
        "Pupil": {
            "value": 83,
            "color": "#c90377"
        },
        "Bulb": {
            "value": 3,
            "color": "#78e063"
        },
        "Specular": {
            "value": 4,
            "color": "#ff3636"
        },
        "Teeth": {
            "value": 5
        },
        "Innermouth": {
            "value": 5
        },
        "Tongue": {
            "value": 6
        },
        "Gum": {
            "value": 7
        },
        "Nails": {
            "value": 8
        },
        "PawPads": {
            "value": 9
        },
        "Eyelashes": {
            "value": 10
        },
        "Eyebrows": {
            "value": 11
        },
        "Nose": {
            "value": 53
        },
        "Whiskers": {
            "value": 54
        }
    },
    "Props": {
        "Wing": {
            "value": 13
        },
        "Feather": {
            "value": 14
        },
        "Beak": {
            "value": 15
        },
        "HairMTL": {
            "value": 16
        },
        "Ceramic": {
            "value": 17
        },
        "Chocolate": {
            "value": 18
        },
        "Diamond": {
            "value": 19
        },
        "Gem": {
            "value": 19
        },
        "Glass": {
            "value": 20
        },
        "Plastic": {
            "value": 21
        },
        "Rubber": {
            "value": 22
        },
        "Water": {
            "value": 23
        },
        "Metal": {
            "value": 24
        },
        "Asphalt": {
            "value": 25
        },
        "Bamboo": {
            "value": 26
        },
        "Concrete": {
            "value": 27
        },
        "Fabric": {
            "value": 28
        },
        "Ivory": {
            "value": 29
        },
        "Leaf": {
            "value": 30
        },
        "Mirror": {
            "value": 31
        },
        "Paper": {
            "value": 32
        },
        "Pearl": {
            "value": 33
        },
        "Rock": {
            "value": 34
        },
        "Stone": {
            "value": 35
        },
        "Terracotta": {
            "value": 36
        },
        "Wood": {
            "value": 37
        },
        "Rope": {
            "value": 38
        },
        "Shell": {
            "value": 39
        },
        "Styrofoam": {
            "value": 40
        },
        "Foam": {
            "value": 40
        },
        "Bone": {
            "value": 41
        },
        "Carpaint": {
            "value": 42
        },
        "Snow": {
            "value": 43
        },
        "Ice": {
            "value": 44
        },
        "Soil": {
            "value": 45
        },
        "Grass": {
            "value": 46
        },
        "Brickwall": {
            "value": 47
        },
        "Stonewall": {
            "value": 47
        },
        "Marble": {
            "value": 48
        },
        "Ground": {
            "value": 49
        },
        "Carpet": {
            "value": 50
        },
        "Polymer": {
            "value": 51
        },
        "Fruit": {
            "value": 52
        },
        "Food": {
            "value": 55
        },
        "Solarpanel": {
            "value": 57
        },
        "Flower": {
            "value": 60
        },
        "Plants": {
            "value": 60
        },
        "Pollen": {
            "value": 61
        },
        "Foam": {
            "value": 62
        },
        "Paint": {
            "value": 63
        },
        "Sponge": {
            "value": 64
        },
        "Flakes": {
            "value": 66
        },
        "Wings": {
            "value": 67
        },
        "Cardboard": {
            "value": 68
        },
        "Tape": {
            "value": 69
        },
        "Straw": {
            "value": 70
        },
        "Liquid": {
            "value": 72
        },
        "Cork": {
            "value": 73
        },
        "Spiderweb": {
            "value": 75
        },
        "Seashell": {
            "value": 76
        },
        "Coral": {
            "value": 76
        },
        "Roof": {
            "value": 77
        },
        "Floor": {
            "value": 78
        },
        "Bubble": {
            "value": 80
        },
        "Mushroom": {
            "value": 81
        },
        "Carpaint": {
            "value": 82
        }
    }
}