{
  "renderSetup": {
    "name": "renderSetup",
    "renderLayers": [
      {
        "renderSetupLayer": {
          "collections": [
            {
              "renderSettingsCollection": {
                "children": [
                  {
                    "absUniqueOverride": {
                      "attrValue": {
                        "connectable": true,
                        "type": "Bool",
                        "value": false
                      },
                      "attribute": "giOn",
                      "localRender": false,
                      "name": "giOn",
                      "selfEnabled": true,
                      "targetNodeName": "vraySettings"
                    }
                  }
                ],
                "isolateSelected": false,
                "name": "RenderSettingsCollection",
                "selector": {
                  "simpleSelector": {
                    "customFilterValue": "",
                    "pattern": "",
                    "previousPattern": "",
                    "staticSelection": "defaultResolution\ndefaultRenderQuality\nvraySettings\ndefaultRenderGlobals",
                    "typeFilter": 0
                  }
                },
                "selfEnabled": true
              }
            },
            {
              "collection": {
                "children": [],
                "expandedState": false,
                "isolateSelected": false,
                "name": "DOME_template_RL_geo_col",
                "selector": {
                  "simpleSelector": {
                    "customFilterValue": "",
                    "pattern": "",
                    "previousPattern": "",
                    "staticSelection": "",
                    "typeFilter": 1
                  }
                },
                "selfEnabled": true
              }
            },
            {
              "collection": {
                "children": [],
                "expandedState": false,
                "isolateSelected": false,
                "name": "DOME_template_RL_lights_col",
                "selector": {
                  "simpleSelector": {
                    "customFilterValue": "",
                    "pattern": "",
                    "previousPattern": "",
                    "staticSelection": "",
                    "typeFilter": 1
                  }
                },
                "selfEnabled": true
              }
            },
            {
              "collection": {
                "children": [
                  {
                    "absOverride": {
                      "attrValue": {
                        "connectable": true,
                        "keyable": true,
                        "type": "Bool",
                        "value": false
                      },
                      "attribute": "visibility",
                      "expandedState": false,
                      "localRender": false,
                      "name": "DOME_template_RL_lights_prune_col_Visibility_Override",
                      "selfEnabled": true
                    }
                  }
                ],
                "isolateSelected": false,
                "name": "DOME_template_RL_lights_prune_col",
                "selector": {
                  "simpleSelector": {
                    "customFilterValue": "",
                    "pattern": "LIGHTS|*:*,LIGHTS|*",
                    "previousPattern": "LIGHTS|*:*,LIGHTS|*",
                    "staticSelection": "",
                    "typeFilter": 1
                  }
                },
                "selfEnabled": true
              }
            },
            {
              "collection": {
                "children": [
                  {
                    "collection": {
                      "children": [
                        {
                          "absOverride": {
                            "attrValue": {
                              "connectable": true,
                              "keyable": true,
                              "type": "Bool",
                              "value": true
                            },
                            "attribute": "mrs_use",
                            "expandedState": false,
                            "localRender": false,
                            "name": "vrscene_useRenderStats7",
                            "selfEnabled": true
                          }
                        },
                        {
                          "absOverride": {
                            "attrValue": {
                              "connectable": true,
                              "keyable": true,
                              "type": "Bool",
                              "value": false
                            },
                            "attribute": "mrs_primaryVisibility",
                            "expandedState": false,
                            "localRender": false,
                            "name": "vrscene_primaryVisibility7",
                            "selfEnabled": true
                          }
                        },
                        {
                          "absOverride": {
                            "attrValue": {
                              "connectable": true,
                              "type": "Bool",
                              "value": false
                            },
                            "attribute": "primaryVisibility",
                            "expandedState": false,
                            "localRender": false,
                            "name": "mesh_primaryVisibility7",
                            "selfEnabled": true
                          }
                        }
                      ],
                      "isolateSelected": false,
                      "name": "DOME_template_RL_geo_trace_col_shapes2",
                      "selector": {
                        "simpleSelector": {
                          "customFilterValue": "",
                          "pattern": "*",
                          "previousPattern": "*",
                          "staticSelection": "",
                          "typeFilter": 2
                        }
                      },
                      "selfEnabled": true
                    }
                  }
                ],
                "isolateSelected": false,
                "name": "DOME_template_RL_geo_trace_col",
                "selector": {
                  "simpleSelector": {
                    "customFilterValue": "",
                    "pattern": "",
                    "previousPattern": "",
                    "staticSelection": "",
                    "typeFilter": 1
                  }
                },
                "selfEnabled": true
              }
            },
            {
              "collection": {
                "children": [
                  {
                    "collection": {
                      "children": [
                        {
                          "absOverride": {
                            "attrValue": {
                              "connectable": true,
                              "type": "Bool",
                              "value": true
                            },
                            "attribute": "disable",
                            "expandedState": false,
                            "localRender": false,
                            "name": "DOME_template_RL_geo_prune_col_shapes_Disable_Override",
                            "selfEnabled": true
                          }
                        }
                      ],
                      "isolateSelected": false,
                      "name": "DOME_template_RL_geo_prune_col_shapes",
                      "selector": {
                        "simpleSelector": {
                          "customFilterValue": "",
                          "pattern": "*",
                          "previousPattern": "*",
                          "staticSelection": "",
                          "typeFilter": 2
                        }
                      },
                      "selfEnabled": true
                    }
                  },
                  {
                    "absOverride": {
                      "attrValue": {
                        "connectable": true,
                        "keyable": true,
                        "type": "Bool",
                        "value": false
                      },
                      "attribute": "visibility",
                      "expandedState": false,
                      "localRender": false,
                      "name": "DOME_template_RL_geo_prune_col_Visibility_Override",
                      "selfEnabled": true
                    }
                  }
                ],
                "isolateSelected": false,
                "name": "DOME_template_RL_geo_prune_col",
                "selector": {
                  "simpleSelector": {
                    "customFilterValue": "",
                    "pattern": "",
                    "previousPattern": "",
                    "staticSelection": "",
                    "typeFilter": 1
                  }
                },
                "selfEnabled": true
              }
            }
          ],
          "expandedState": false,
          "name": "DOME_template_RL",
          "renderable": true
        }
      }
    ]
  }
}