//Maya ASCII 2020 scene
//Name: CorrectiveLocatorToImport.ma
//Last modified: Wed, Jan 10, 2024 08:20:39 PM
//Codeset: 1252
requires maya "2020";
requires "stereoCamera" "10.0";
requires "mtoa" "4.1.1";
requires "mtoa" "4.1.1";
requires "stereoCamera" "10.0";
currentUnit -l centimeter -a degree -t pal;
fileInfo "application" "maya";
fileInfo "product" "Maya 2020";
fileInfo "version" "2020";
fileInfo "cutIdentifier" "202011110415-b1e20b88e2";
fileInfo "osv" "Microsoft Windows 10 Technical Preview  (Build 19045)\n";
fileInfo "UUID" "9F8991DD-4085-37EE-9F5A-FA9F1075C821";
createNode transform -n "L_Side_Correctrive";
	rename -uid "929998D7-4015-0E0D-68EF-58B596D4E268";
createNode transform -n "LOC_L_BackLeg_Corr" -p "L_Side_Correctrive";
	rename -uid "5A568E6E-401C-43B1-51BE-0B946F0B60C2";
	setAttr ".t" -type "double3" 7.6335633160927516 99.411345370658566 -8.7023500751112444 ;
	setAttr ".r" -type "double3" 0.0011598514391726955 -178.42896916346777 90.055858016452646 ;
createNode locator -n "LOC_L_BackLeg_Corr_jnt" -p "LOC_L_BackLeg_Corr";
	rename -uid "A9EA2FC7-4E2B-D881-DFB1-93BCB0656717";
	setAttr -k off ".v";
	setAttr ".ove" yes;
	setAttr ".ovc" 18;
	setAttr ".los" -type "double3" 3 3 3 ;
createNode transform -n "LOC_L_Knee_Ext_Corr" -p "L_Side_Correctrive";
	rename -uid "C4B37100-4E20-5778-8FB7-84975098F9EA";
	setAttr ".t" -type "double3" 7.6756114432878295 55.99179031763277 6.462113119858147 ;
	setAttr ".r" -type "double3" -179.99883793169687 176.12777543646223 90.055968291570252 ;
	setAttr ".s" -type "double3" 0.99999999999999978 1.0000000000000007 1.0000000000000002 ;
createNode locator -n "LOC_L_Knee_Ext_CorrShape" -p "LOC_L_Knee_Ext_Corr";
	rename -uid "F9A6C8C9-4A13-4873-0B06-E399FE398B25";
	setAttr -k off ".v";
	setAttr ".ove" yes;
	setAttr ".ovc" 18;
	setAttr ".los" -type "double3" 3 3 3 ;
createNode transform -n "LOC_L_Knee_Int_Corr" -p "L_Side_Correctrive";
	rename -uid "491F366D-48EA-C852-0104-19B7C42F146E";
	setAttr ".t" -type "double3" 7.6749718522960455 56.937232998364699 -7.5059267472231976 ;
	setAttr ".r" -type "double3" 0.0011620683031387819 176.12777543646223 90.055968291570267 ;
	setAttr ".s" -type "double3" 0.99999999999999978 1.0000000000000007 1.0000000000000002 ;
createNode locator -n "LOC_L_Knee_Int_CorrShape" -p "LOC_L_Knee_Int_Corr";
	rename -uid "81C428C5-4643-8C2D-61D8-C8A940C2A796";
	setAttr -k off ".v";
	setAttr ".ove" yes;
	setAttr ".ovc" 18;
	setAttr ".los" -type "double3" 3 3 3 ;
createNode transform -n "LOC_L_UpLeg_Corr" -p "L_Side_Correctrive";
	rename -uid "EA19632D-4E11-C815-4C8D-2590D3D81857";
	setAttr ".t" -type "double3" 7.6293363571165722 103.60175323486337 5.1853537559509171 ;
	setAttr ".r" -type "double3" 0 0 90 ;
createNode locator -n "LOC_L_UpLeg_CorrShape" -p "LOC_L_UpLeg_Corr";
	rename -uid "54D5BB07-47BF-39C4-3BE2-7B9BFEB82E3A";
	setAttr -k off ".v";
	setAttr ".ove" yes;
	setAttr ".ovc" 18;
	setAttr ".los" -type "double3" 3 3 3 ;
createNode transform -n "LOC_L_Shoulder_Low_Corr" -p "L_Side_Correctrive";
	rename -uid "356DEF94-405F-85C5-039E-C38535EA5928";
	setAttr ".t" -type "double3" 8.956600189011148 135.18492126467237 -4.2167353630756308 ;
	setAttr ".r" -type "double3" 90 0 0 ;
	setAttr ".s" -type "double3" 0.99999999999999978 0.99999999999999978 0.99999999999999933 ;
createNode locator -n "LOC_L_Shoulder_Low_CorrShape" -p "LOC_L_Shoulder_Low_Corr";
	rename -uid "707D3DE6-4844-BEEF-5E31-15A0D0274474";
	setAttr -k off ".v";
	setAttr ".ove" yes;
	setAttr ".ovc" 18;
	setAttr ".los" -type "double3" 3 3 3 ;
createNode transform -n "LOC_L_Shoulder_Up_Corr" -p "L_Side_Correctrive";
	rename -uid "42293884-4594-31FE-1D90-CB905895BC8C";
	setAttr ".t" -type "double3" 8.956600189011148 145.18492126467237 -4.2167353630756308 ;
	setAttr ".r" -type "double3" -90 0 0 ;
	setAttr ".s" -type "double3" 0.99999999999999978 0.99999999999999978 0.99999999999999933 ;
createNode locator -n "LOC_L_Shoulder_Up_CorrShape" -p "LOC_L_Shoulder_Up_Corr";
	rename -uid "35EC4E3F-4608-E1FE-CA22-35B4BD6345F7";
	setAttr -k off ".v";
	setAttr ".ove" yes;
	setAttr ".ovc" 18;
	setAttr ".los" -type "double3" 3 3 3 ;
createNode transform -n "LOC_L_Shoulder_Back_Corr" -p "L_Side_Correctrive";
	rename -uid "971BDA5F-4F23-E980-CB58-2B93AE6BEC51";
	setAttr ".t" -type "double3" 8.956600189011148 140.18492126467237 -9.2167353630756281 ;
	setAttr ".r" -type "double3" 0 180 0 ;
	setAttr ".s" -type "double3" 0.99999999999999978 0.99999999999999978 0.99999999999999933 ;
createNode locator -n "LOC_L_Shoulder_Back_CorrShape" -p "LOC_L_Shoulder_Back_Corr";
	rename -uid "5126E79A-453C-1638-D061-86A362F8C53D";
	setAttr -k off ".v";
	setAttr ".ove" yes;
	setAttr ".ovc" 18;
	setAttr ".los" -type "double3" 3 3 3 ;
createNode transform -n "LOC_L_Elbow_Int_Corr" -p "L_Side_Correctrive";
	rename -uid "39CF57BA-4BAC-F3A4-681E-09A3F1E120AE";
	setAttr ".t" -type "double3" 20.950575865385865 123.91486619148269 -0.025545681246404772 ;
	setAttr ".r" -type "double3" -10.738304546538119 -39.739945670027879 -48.4103767839688 ;
	setAttr ".s" -type "double3" 0.99999999999999956 1 1 ;
createNode locator -n "LOC_L_Elbow_Int_CorrShape" -p "LOC_L_Elbow_Int_Corr";
	rename -uid "D36D5CD8-4BBE-5DA7-4572-FE960B1FD27F";
	setAttr -k off ".v";
	setAttr ".ove" yes;
	setAttr ".ovc" 18;
	setAttr ".los" -type "double3" 3 3 3 ;
createNode transform -n "LOC_L_Elbow_Ext_Corr" -p "L_Side_Correctrive";
	rename -uid "F110F21F-4A0E-9A5D-FAAC-CD843F332E0C";
	setAttr ".t" -type "double3" 23.726357044797503 117.9803267434868 -7.5804302193584707 ;
	setAttr ".r" -type "double3" 169.26169545346187 -39.739945670027886 -48.410376783968815 ;
	setAttr ".s" -type "double3" 0.99999999999999956 1 1 ;
createNode locator -n "LOC_L_Elbow_Ext_CorrShape" -p "LOC_L_Elbow_Ext_Corr";
	rename -uid "7A38D3B3-4FD4-495E-789B-2EB994D1714B";
	setAttr -k off ".v";
	setAttr ".ove" yes;
	setAttr ".ovc" 18;
	setAttr ".los" -type "double3" 3 3 3 ;
createNode transform -n "LOC_L_Wrist_Ext_Corr" -p "L_Side_Correctrive";
	rename -uid "B229CDF3-49EF-488B-355C-DC89DB78EC46";
	setAttr ".t" -type "double3" 38.778931187918964 108.79290614857987 9.3686521080068932 ;
	setAttr ".r" -type "double3" -120.66098509451491 -41.660461629675481 -50.75827504444991 ;
	setAttr ".s" -type "double3" 0.99999999999999956 0.99999999999999978 1.0000000000000004 ;
createNode locator -n "LOC_L_Wrist_Ext_CorrShape" -p "LOC_L_Wrist_Ext_Corr";
	rename -uid "FE6309D9-4061-427C-05E3-26B962E0346C";
	setAttr -k off ".v";
	setAttr ".ove" yes;
	setAttr ".ovc" 18;
	setAttr ".los" -type "double3" 3 3 3 ;
createNode transform -n "LOC_L_Shoulder_Front_Corr" -p "L_Side_Correctrive";
	rename -uid "3187B793-42DC-89C3-A382-4CA5BA296F33";
	setAttr ".t" -type "double3" 8.956600189011148 140.18492126467237 0.78326463692436565 ;
	setAttr ".s" -type "double3" 0.99999999999999978 0.99999999999999978 0.99999999999999933 ;
createNode locator -n "LOC_L_Shoulder_Front_CorrShape" -p "LOC_L_Shoulder_Front_Corr";
	rename -uid "4AAD6EDB-4128-5DEA-DA64-DF950ED8694F";
	setAttr -k off ".v";
	setAttr ".ove" yes;
	setAttr ".ovc" 18;
	setAttr ".los" -type "double3" 3 3 3 ;
createNode transform -n "R_Side_Correctrive";
	rename -uid "820777DA-448C-999C-46FA-6A8CE7858ABE";
createNode transform -n "LOC_R_BackLeg_Corr" -p "R_Side_Correctrive";
	rename -uid "0EF54B5B-4B31-38F2-49E7-10BC967B05F5";
createNode locator -n "LOC_R_BackLeg_Corr_jnt" -p "LOC_R_BackLeg_Corr";
	rename -uid "3CFBD8A1-4701-670A-E87F-A995F7174EE9";
	setAttr -k off ".v";
	setAttr ".ove" yes;
	setAttr ".ovc" 20;
	setAttr ".los" -type "double3" 3 3 3 ;
createNode transform -n "LOC_R_Shoulder_Front_Corr" -p "R_Side_Correctrive";
	rename -uid "B2A20DD8-4336-B09F-C113-16A0F9F38206";
createNode locator -n "LOC_R_Shoulder_Front_CorrShape" -p "LOC_R_Shoulder_Front_Corr";
	rename -uid "D4379E09-4FF4-EDD0-E276-02AE2EFBB2F5";
	setAttr -k off ".v";
	setAttr ".ove" yes;
	setAttr ".ovc" 20;
	setAttr ".los" -type "double3" 3 3 3 ;
createNode transform -n "LOC_R_Knee_Ext_Corr" -p "R_Side_Correctrive";
	rename -uid "6B44D196-4317-E0A0-DE6F-E7A19EC5A91C";
createNode locator -n "LOC_R_Knee_Ext_CorrShape" -p "LOC_R_Knee_Ext_Corr";
	rename -uid "0BE44113-42F7-D0EA-4630-3188B9B43C61";
	setAttr -k off ".v";
	setAttr ".ove" yes;
	setAttr ".ovc" 20;
	setAttr ".los" -type "double3" 3 3 3 ;
createNode transform -n "LOC_R_Knee_Int_Corr" -p "R_Side_Correctrive";
	rename -uid "8CE315BE-4276-3493-1E29-7B91F2DA5CE8";
createNode locator -n "LOC_R_Knee_Int_CorrShape" -p "LOC_R_Knee_Int_Corr";
	rename -uid "56346110-4B68-0F84-8049-8BB3A8E26EA2";
	setAttr -k off ".v";
	setAttr ".ove" yes;
	setAttr ".ovc" 20;
	setAttr ".los" -type "double3" 3 3 3 ;
createNode transform -n "LOC_R_UpLeg_Corr" -p "R_Side_Correctrive";
	rename -uid "1985F899-451C-3A3A-71B9-C7B4BA934C4B";
createNode locator -n "LOC_R_UpLeg_CorrShape" -p "LOC_R_UpLeg_Corr";
	rename -uid "B2D6F69F-4FDD-8019-968E-6BBA923E2A26";
	setAttr -k off ".v";
	setAttr ".ove" yes;
	setAttr ".ovc" 20;
	setAttr ".los" -type "double3" 3 3 3 ;
createNode transform -n "LOC_R_Shoulder_Low_Corr" -p "R_Side_Correctrive";
	rename -uid "09064479-43E0-81C6-CC22-18BD0A7C61B7";
createNode locator -n "LOC_R_Shoulder_Low_CorrShape" -p "LOC_R_Shoulder_Low_Corr";
	rename -uid "A73469B6-4991-D302-C484-F7B2BC3786E6";
	setAttr -k off ".v";
	setAttr ".ove" yes;
	setAttr ".ovc" 20;
	setAttr ".los" -type "double3" 3 3 3 ;
createNode transform -n "LOC_R_Shoulder_Up_Corr" -p "R_Side_Correctrive";
	rename -uid "8B06D744-4BE1-7F91-423F-72ACD9E6927E";
createNode locator -n "LOC_R_Shoulder_Up_CorrShape" -p "LOC_R_Shoulder_Up_Corr";
	rename -uid "82DC2D27-4591-7343-264A-AAAAE91C90F7";
	setAttr -k off ".v";
	setAttr ".ove" yes;
	setAttr ".ovc" 20;
	setAttr ".los" -type "double3" 3 3 3 ;
createNode transform -n "LOC_R_Shoulder_Back_Corr" -p "R_Side_Correctrive";
	rename -uid "6A6058FC-4B95-1DDE-F302-A291A22E89DC";
createNode locator -n "LOC_R_Shoulder_Back_CorrShape" -p "LOC_R_Shoulder_Back_Corr";
	rename -uid "3FB56D80-4F64-DA05-B905-799AB77F98F1";
	setAttr -k off ".v";
	setAttr ".ove" yes;
	setAttr ".ovc" 20;
	setAttr ".los" -type "double3" 3 3 3 ;
createNode transform -n "LOC_R_Elbow_Int_Corr" -p "R_Side_Correctrive";
	rename -uid "D8F86287-4EEC-63FE-2F14-9BB19B3B2F56";
	setAttr ".s" -type "double3" 1 1.0000000000000002 1 ;
createNode locator -n "LOC_R_Elbow_Int_CorrShape" -p "LOC_R_Elbow_Int_Corr";
	rename -uid "0787D306-418C-5F03-5C4A-1CA0CC02B6CE";
	setAttr -k off ".v";
	setAttr ".ove" yes;
	setAttr ".ovc" 20;
	setAttr ".los" -type "double3" 3 3 3 ;
createNode transform -n "LOC_R_Elbow_Ext_Corr" -p "R_Side_Correctrive";
	rename -uid "73CD69E6-4DAC-046A-477D-95A225E6125C";
createNode locator -n "LOC_R_Elbow_Ext_CorrShape" -p "LOC_R_Elbow_Ext_Corr";
	rename -uid "69DCA6B3-408E-7232-BB9E-C682F682EE76";
	setAttr -k off ".v";
	setAttr ".ove" yes;
	setAttr ".ovc" 20;
	setAttr ".los" -type "double3" 3 3 3 ;
createNode transform -n "LOC_R_Wrist_Ext_Corr" -p "R_Side_Correctrive";
	rename -uid "5C7C1F15-44A5-5B8F-B30C-D294D64ABEB0";
createNode locator -n "LOC_R_Wrist_Ext_CorrShape" -p "LOC_R_Wrist_Ext_Corr";
	rename -uid "54BDE0D9-42F4-20AE-3167-B8A9467C2A3D";
	setAttr -k off ".v";
	setAttr ".ove" yes;
	setAttr ".ovc" 20;
	setAttr ".los" -type "double3" 3 3 3 ;
createNode multiplyDivide -n "MLD_LOC_L_BackLeg_Corr_01";
	rename -uid "40513C4A-4BFA-DADE-8255-77B8A89954F1";
	setAttr ".i2" -type "float3" -1 1 1 ;
createNode unitConversion -n "unitConversion15";
	rename -uid "DD1AA37F-442A-F7A5-F0CD-F2A1A13AD748";
	setAttr ".cf" 0.017453292519943295;
createNode multiplyDivide -n "MLD_LOC_L_BackLeg_Corr_02";
	rename -uid "7F9E61B7-496D-859A-9B90-2592AA313688";
	setAttr ".i2" -type "float3" 1 -1 -1 ;
createNode unitConversion -n "unitConversion313";
	rename -uid "2B6A274A-4E25-19DE-D6B2-889F018D4179";
	setAttr ".cf" 57.295779513082323;
createNode multiplyDivide -n "MLD_LOC_L_Shoulder_Front_Corr_01";
	rename -uid "75D2F66D-4DC3-2216-9899-71A07B450222";
	setAttr ".i2" -type "float3" -1 1 1 ;
createNode unitConversion -n "unitConversion306";
	rename -uid "6848D9B4-4519-4275-5063-E4B41EADE61F";
	setAttr ".cf" 0.017453292519943295;
createNode multiplyDivide -n "MLD_LOC_L_Shoulder_Front_Corr_02";
	rename -uid "C99645D2-4289-B602-EA28-4D95E9CD2DBE";
	setAttr ".i2" -type "float3" 1 -1 -1 ;
createNode unitConversion -n "unitConversion305";
	rename -uid "1A774AA8-4E84-DFD9-FD98-5BA8D3D25308";
	setAttr ".cf" 57.295779513082323;
createNode multiplyDivide -n "MLD_LOC_L_Knee_Ext_Corr_01";
	rename -uid "B3EC0470-4773-0C29-FDFB-DA8F75139F00";
	setAttr ".i2" -type "float3" -1 1 1 ;
createNode unitConversion -n "unitConversion316";
	rename -uid "4DFC76A2-492B-097B-C1EF-3F82A741A990";
	setAttr ".cf" 0.017453292519943295;
createNode multiplyDivide -n "MLD_LOC_L_Knee_Corr_02";
	rename -uid "ADC60179-4603-1845-BD85-579595A8943A";
	setAttr ".i2" -type "float3" 1 -1 -1 ;
createNode unitConversion -n "unitConversion18";
	rename -uid "90E6F70A-414B-F7D4-FC64-87A95D8EF7A2";
	setAttr ".cf" 57.295779513082323;
createNode multiplyDivide -n "MLD_LOC_L_Knee_Int_Corr_01";
	rename -uid "4DE0A4FA-415F-740F-7380-278AFE08D58E";
	setAttr ".i2" -type "float3" -1 1 1 ;
createNode unitConversion -n "unitConversion315";
	rename -uid "A14E37D8-4B31-DD21-B675-2AAEC96DE581";
	setAttr ".cf" 0.017453292519943295;
createNode multiplyDivide -n "MLD_LOC_L_Knee_Int_Corr_02";
	rename -uid "6A2788CB-49E9-A082-72B7-A2969FBFA8FB";
	setAttr ".i2" -type "float3" 1 -1 -1 ;
createNode unitConversion -n "unitConversion314";
	rename -uid "DFBDEF56-4EA2-4571-8C9F-45BC182B4CC3";
	setAttr ".cf" 57.295779513082323;
createNode multiplyDivide -n "MLD_LOC_L_UpLeg_01";
	rename -uid "D3FD52FD-400B-1E62-7E64-BE829F079D7F";
	setAttr ".i2" -type "float3" -1 1 1 ;
createNode unitConversion -n "unitConversion21";
	rename -uid "0019BF9C-4138-049E-483D-1A857C9F9A12";
	setAttr ".cf" 0.017453292519943295;
createNode multiplyDivide -n "MLD_LOC_L_UpLeg_02";
	rename -uid "AA33C8C0-4F98-A54E-903F-83BEE387D89C";
	setAttr ".i2" -type "float3" 1 -1 -1 ;
createNode unitConversion -n "unitConversion317";
	rename -uid "18A3924B-495A-9E10-29FD-6CADF51745B9";
	setAttr ".cf" 57.295779513082323;
createNode multiplyDivide -n "MLD_LOC_L_Shoulder_Low_Corr_01";
	rename -uid "3C38A4A7-4188-DAFD-137F-EDAE726387F2";
	setAttr ".i2" -type "float3" -1 1 1 ;
createNode unitConversion -n "unitConversion307";
	rename -uid "17256A74-4DED-14F0-DBBB-0388559F19C2";
	setAttr ".cf" 0.017453292519943295;
createNode multiplyDivide -n "MLD_LOC_L_Shoulder_Low_Corr_02";
	rename -uid "88082440-4EB6-AED7-BBEC-81876A28C9C9";
	setAttr ".i2" -type "float3" 1 -1 -1 ;
createNode unitConversion -n "unitConversion3";
	rename -uid "075CEB80-4FD2-F0D5-637D-8AA47CE5220E";
	setAttr ".cf" 57.295779513082323;
createNode multiplyDivide -n "MLD_LOC_L_Shoulder_Up_Corr_01";
	rename -uid "4FD8AE85-422B-C902-AFEE-61B064025262";
	setAttr ".i2" -type "float3" -1 1 1 ;
createNode unitConversion -n "unitConversion6";
	rename -uid "485B99E2-42F5-3201-34E2-B9AAFE2E09E0";
	setAttr ".cf" 0.017453292519943295;
createNode multiplyDivide -n "MLD_LOC_L_Shoulder_Up_Corr_02";
	rename -uid "B98339C8-412E-4264-F2AA-F28FB041C45B";
	setAttr ".i2" -type "float3" 1 -1 -1 ;
createNode unitConversion -n "unitConversion308";
	rename -uid "BA11585F-45FD-A091-7F7F-34A15D273F9D";
	setAttr ".cf" 57.295779513082323;
createNode multiplyDivide -n "MLD_LOC_L_Shoulder_Back_Corr_01";
	rename -uid "5DFE40DA-4B11-FF78-6682-D6B33E15982D";
	setAttr ".i2" -type "float3" -1 1 1 ;
createNode unitConversion -n "unitConversion319";
	rename -uid "F8584C5E-48F6-0B42-80F8-97A70B74E4CC";
	setAttr ".cf" 0.017453292519943295;
createNode multiplyDivide -n "MLD_LOC_L_Shoulder_Back_Corr_02";
	rename -uid "6B363EE5-4A73-57C6-BDA1-66976749D388";
	setAttr ".i2" -type "float3" 1 -1 -1 ;
createNode unitConversion -n "unitConversion318";
	rename -uid "89931BFC-40A7-D977-AF03-0EAD4018B618";
	setAttr ".cf" 57.295779513082323;
createNode multiplyDivide -n "MLD_LOC_L_Elbow_Int_Corr_01";
	rename -uid "7B2CFCD7-49EE-E092-5206-CE8B17B39E78";
	setAttr ".i2" -type "float3" -1 1 1 ;
createNode unitConversion -n "unitConversion311";
	rename -uid "E1707C76-4D5C-35EC-DC97-EE8C8AE1324D";
	setAttr ".cf" 0.017453292519943295;
createNode multiplyDivide -n "MLD_LOC_L_Elbow_Int_Corr_02";
	rename -uid "79A246F2-4489-E7DA-0012-358EB017C7B6";
	setAttr ".i2" -type "float3" 1 -1 -1 ;
createNode unitConversion -n "unitConversion9";
	rename -uid "5B8E8862-4012-A141-7551-2C882FAC1B6B";
	setAttr ".cf" 57.295779513082323;
createNode multiplyDivide -n "MLD_LOC_L_Elbow_Ext_Corr_01";
	rename -uid "5FB7AD96-41A7-12D0-0696-ACAB788AEA02";
	setAttr ".i2" -type "float3" -1 1 1 ;
createNode unitConversion -n "unitConversion310";
	rename -uid "3BBCC26D-4725-BB21-28A3-A5B163FC2B86";
	setAttr ".cf" 0.017453292519943295;
createNode multiplyDivide -n "MLD_LOC_L_Elbow_Ext_Corr_02";
	rename -uid "FFE490F9-408A-69A8-4435-CBB462471B2E";
	setAttr ".i2" -type "float3" 1 -1 -1 ;
createNode unitConversion -n "unitConversion309";
	rename -uid "E219568E-49AB-56F1-07FB-1983F06464ED";
	setAttr ".cf" 57.295779513082323;
createNode multiplyDivide -n "MLD_LOC_L_Wrist_Ext_Corr_01";
	rename -uid "2AC3D606-4D9E-94BE-2392-E4AB641E1E64";
	setAttr ".i2" -type "float3" -1 1 1 ;
createNode unitConversion -n "unitConversion12";
	rename -uid "AC84C68C-473A-287D-D0E5-04BB71A22D8E";
	setAttr ".cf" 0.017453292519943295;
createNode multiplyDivide -n "MLD_LOC_L_Wrist_Ext_Corr_02";
	rename -uid "2C532916-4824-5B6F-3417-C5A6E01B4014";
	setAttr ".i2" -type "float3" 1 -1 -1 ;
createNode unitConversion -n "unitConversion312";
	rename -uid "53C0C3EF-46F2-D699-13A2-8FBDD8850CF3";
	setAttr ".cf" 57.295779513082323;
select -ne :time1;
	setAttr ".o" 1;
	setAttr ".unw" 1;
select -ne :hardwareRenderingGlobals;
	setAttr ".otfna" -type "stringArray" 22 "NURBS Curves" "NURBS Surfaces" "Polygons" "Subdiv Surface" "Particles" "Particle Instance" "Fluids" "Strokes" "Image Planes" "UI" "Lights" "Cameras" "Locators" "Joints" "IK Handles" "Deformers" "Motion Trails" "Components" "Hair Systems" "Follicles" "Misc. UI" "Ornaments"  ;
	setAttr ".otfva" -type "Int32Array" 22 0 1 1 1 1 1
		 1 1 1 0 0 0 0 0 0 0 0 0
		 0 0 0 0 ;
	setAttr ".fprt" yes;
select -ne :renderPartition;
	setAttr -s 14 ".st";
select -ne :renderGlobalsList1;
select -ne :defaultShaderList1;
	setAttr -s 17 ".s";
select -ne :postProcessList1;
	setAttr -s 2 ".p";
select -ne :defaultRenderUtilityList1;
	setAttr -s 5 ".u";
select -ne :defaultRenderingList1;
select -ne :defaultTextureList1;
	setAttr -s 5 ".tx";
select -ne :initialShadingGroup;
	setAttr -s 4 ".dsm";
	setAttr ".ro" yes;
	setAttr -s 4 ".gn";
select -ne :initialParticleSE;
	setAttr ".ro" yes;
select -ne :defaultRenderGlobals;
	setAttr ".edl" no;
	setAttr ".fs" 1;
	setAttr ".ef" 10;
select -ne :defaultResolution;
	setAttr ".w" 1920;
	setAttr ".h" 1080;
	setAttr ".pa" 1;
select -ne :hardwareRenderGlobals;
	setAttr ".ctrs" 256;
	setAttr ".btrs" 512;
select -ne :ikSystem;
	setAttr -s 3 ".sol";
connectAttr ":defaultHardwareRenderGlobals.msg" ":perspShape.b" -na;
connectAttr ":ikSystem.msg" ":perspShape.b" -na;
connectAttr "MLD_LOC_L_BackLeg_Corr_01.o" "LOC_R_BackLeg_Corr.t";
connectAttr "unitConversion15.o" "LOC_R_BackLeg_Corr.r";
connectAttr "MLD_LOC_L_Shoulder_Front_Corr_01.o" "LOC_R_Shoulder_Front_Corr.t";
connectAttr "unitConversion306.o" "LOC_R_Shoulder_Front_Corr.r";
connectAttr "MLD_LOC_L_Knee_Ext_Corr_01.o" "LOC_R_Knee_Ext_Corr.t";
connectAttr "unitConversion316.o" "LOC_R_Knee_Ext_Corr.r";
connectAttr "MLD_LOC_L_Knee_Int_Corr_01.o" "LOC_R_Knee_Int_Corr.t";
connectAttr "unitConversion315.o" "LOC_R_Knee_Int_Corr.r";
connectAttr "MLD_LOC_L_UpLeg_01.o" "LOC_R_UpLeg_Corr.t";
connectAttr "unitConversion21.o" "LOC_R_UpLeg_Corr.r";
connectAttr "MLD_LOC_L_Shoulder_Low_Corr_01.o" "LOC_R_Shoulder_Low_Corr.t";
connectAttr "unitConversion307.o" "LOC_R_Shoulder_Low_Corr.r";
connectAttr "MLD_LOC_L_Shoulder_Up_Corr_01.o" "LOC_R_Shoulder_Up_Corr.t";
connectAttr "unitConversion6.o" "LOC_R_Shoulder_Up_Corr.r";
connectAttr "MLD_LOC_L_Shoulder_Back_Corr_01.o" "LOC_R_Shoulder_Back_Corr.t";
connectAttr "unitConversion319.o" "LOC_R_Shoulder_Back_Corr.r";
connectAttr "MLD_LOC_L_Elbow_Int_Corr_01.o" "LOC_R_Elbow_Int_Corr.t";
connectAttr "unitConversion311.o" "LOC_R_Elbow_Int_Corr.r";
connectAttr "MLD_LOC_L_Elbow_Ext_Corr_01.o" "LOC_R_Elbow_Ext_Corr.t";
connectAttr "unitConversion310.o" "LOC_R_Elbow_Ext_Corr.r";
connectAttr "MLD_LOC_L_Wrist_Ext_Corr_01.o" "LOC_R_Wrist_Ext_Corr.t";
connectAttr "unitConversion12.o" "LOC_R_Wrist_Ext_Corr.r";
connectAttr "LOC_L_BackLeg_Corr.t" "MLD_LOC_L_BackLeg_Corr_01.i1";
connectAttr "MLD_LOC_L_BackLeg_Corr_02.o" "unitConversion15.i";
connectAttr "unitConversion313.o" "MLD_LOC_L_BackLeg_Corr_02.i1";
connectAttr "LOC_L_BackLeg_Corr.r" "unitConversion313.i";
connectAttr "LOC_L_Shoulder_Front_Corr.t" "MLD_LOC_L_Shoulder_Front_Corr_01.i1";
connectAttr "MLD_LOC_L_Shoulder_Front_Corr_02.o" "unitConversion306.i";
connectAttr "unitConversion305.o" "MLD_LOC_L_Shoulder_Front_Corr_02.i1";
connectAttr "LOC_L_Shoulder_Front_Corr.r" "unitConversion305.i";
connectAttr "LOC_L_Knee_Ext_Corr.t" "MLD_LOC_L_Knee_Ext_Corr_01.i1";
connectAttr "MLD_LOC_L_Knee_Corr_02.o" "unitConversion316.i";
connectAttr "unitConversion18.o" "MLD_LOC_L_Knee_Corr_02.i1";
connectAttr "LOC_L_Knee_Ext_Corr.r" "unitConversion18.i";
connectAttr "LOC_L_Knee_Int_Corr.t" "MLD_LOC_L_Knee_Int_Corr_01.i1";
connectAttr "MLD_LOC_L_Knee_Int_Corr_02.o" "unitConversion315.i";
connectAttr "unitConversion314.o" "MLD_LOC_L_Knee_Int_Corr_02.i1";
connectAttr "LOC_L_Knee_Int_Corr.r" "unitConversion314.i";
connectAttr "LOC_L_UpLeg_Corr.t" "MLD_LOC_L_UpLeg_01.i1";
connectAttr "MLD_LOC_L_UpLeg_02.o" "unitConversion21.i";
connectAttr "unitConversion317.o" "MLD_LOC_L_UpLeg_02.i1";
connectAttr "LOC_L_UpLeg_Corr.r" "unitConversion317.i";
connectAttr "LOC_L_Shoulder_Low_Corr.t" "MLD_LOC_L_Shoulder_Low_Corr_01.i1";
connectAttr "MLD_LOC_L_Shoulder_Low_Corr_02.o" "unitConversion307.i";
connectAttr "unitConversion3.o" "MLD_LOC_L_Shoulder_Low_Corr_02.i1";
connectAttr "LOC_L_Shoulder_Low_Corr.r" "unitConversion3.i";
connectAttr "LOC_L_Shoulder_Up_Corr.t" "MLD_LOC_L_Shoulder_Up_Corr_01.i1";
connectAttr "MLD_LOC_L_Shoulder_Up_Corr_02.o" "unitConversion6.i";
connectAttr "unitConversion308.o" "MLD_LOC_L_Shoulder_Up_Corr_02.i1";
connectAttr "LOC_L_Shoulder_Up_Corr.r" "unitConversion308.i";
connectAttr "LOC_L_Shoulder_Back_Corr.t" "MLD_LOC_L_Shoulder_Back_Corr_01.i1";
connectAttr "MLD_LOC_L_Shoulder_Back_Corr_02.o" "unitConversion319.i";
connectAttr "unitConversion318.o" "MLD_LOC_L_Shoulder_Back_Corr_02.i1";
connectAttr "LOC_L_Shoulder_Back_Corr.r" "unitConversion318.i";
connectAttr "LOC_L_Elbow_Int_Corr.t" "MLD_LOC_L_Elbow_Int_Corr_01.i1";
connectAttr "MLD_LOC_L_Elbow_Int_Corr_02.o" "unitConversion311.i";
connectAttr "unitConversion9.o" "MLD_LOC_L_Elbow_Int_Corr_02.i1";
connectAttr "LOC_L_Elbow_Int_Corr.r" "unitConversion9.i";
connectAttr "LOC_L_Elbow_Ext_Corr.t" "MLD_LOC_L_Elbow_Ext_Corr_01.i1";
connectAttr "MLD_LOC_L_Elbow_Ext_Corr_02.o" "unitConversion310.i";
connectAttr "unitConversion309.o" "MLD_LOC_L_Elbow_Ext_Corr_02.i1";
connectAttr "LOC_L_Elbow_Ext_Corr.r" "unitConversion309.i";
connectAttr "LOC_L_Wrist_Ext_Corr.t" "MLD_LOC_L_Wrist_Ext_Corr_01.i1";
connectAttr "MLD_LOC_L_Wrist_Ext_Corr_02.o" "unitConversion12.i";
connectAttr "unitConversion312.o" "MLD_LOC_L_Wrist_Ext_Corr_02.i1";
connectAttr "LOC_L_Wrist_Ext_Corr.r" "unitConversion312.i";
dataStructure -fmt "raw" -as "name=faceConnectMarkerStructure:bool=faceConnectMarker:string[200]=faceConnectOutputGroups";
dataStructure -fmt "raw" -as "name=faceConnectOutputStructure:bool=faceConnectOutput:string[200]=faceConnectOutputAttributes:string[200]=faceConnectOutputGroups";
dataStructure -fmt "raw" -as "name=notes_pPlane1:string=value";
dataStructure -fmt "raw" -as "name=OffStruct:float=Offset";
dataStructure -fmt "raw" -as "name=mapManager_degraded:string=value";
dataStructure -fmt "raw" -as "name=mapManager_ground_c_geo:string=value";
dataStructure -fmt "raw" -as "name=notes_slopesGroundGrassD_Combined:string=value";
dataStructure -fmt "raw" -as "name=mapManager_base_right:string=value";
dataStructure -fmt "raw" -as "name=notes_baseScatt:string=value";
dataStructure -fmt "raw" -as "name=notes_wildPatchH_parShape:string=value";
dataStructure -fmt "raw" -as "name=mapManager_base_hojas:string=value";
dataStructure -fmt "raw" -as "name=mapManager_polySurface56:string=value";
dataStructure -fmt "raw" -as "name=notes_grass_c_geo1:string=value";
dataStructure -fmt "raw" -as "name=mapManager_trees_left:string=value";
dataStructure -fmt "raw" -as "name=notes_left_parShape:string=value";
dataStructure -fmt "raw" -as "name=keyValueStructure:string=value";
dataStructure -fmt "raw" -as "name=notes_polySurface56:string=value";
dataStructure -fmt "raw" -as "name=notes_decayGrassPatchC_parShape:string=value";
dataStructure -fmt "raw" -as "name=notes_wildPatchG_parShape:string=value";
dataStructure -fmt "raw" -as "name=externalContentTablZ:string=nodZ:string=key:string=upath:uint32=upathcrc:string=rpath:string=roles";
dataStructure -fmt "raw" -as "name=notes_groundD_parShape:string=value";
dataStructure -fmt "raw" -as "name=notes_groundA_parShape:string=value";
dataStructure -fmt "raw" -as "name=notes_wildPatchD_parShape:string=value";
dataStructure -fmt "raw" -as "name=notes_ground_c_geo:string=value";
dataStructure -fmt "raw" -as "name=notes_mountains_parShape:string=value";
dataStructure -fmt "raw" -as "name=FBXFastExportSetting_MB:string=19424";
dataStructure -fmt "raw" -as "name=notes_decayLeavesCarousel_parShape:string=value";
dataStructure -fmt "raw" -as "name=notes_slopesGroundGrassC_Combined:string=value";
dataStructure -fmt "raw" -as "name=notes_trees_parShape:string=value";
dataStructure -fmt "raw" -as "name=notes_decayGrassPatchB_parShape:string=value";
dataStructure -fmt "raw" -as "name=notes_wildPatchDegraded_parShape:string=value";
dataStructure -fmt "raw" -as "name=DiffArea:float=value";
dataStructure -fmt "raw" -as "name=mapManager_snapshot_floor:string=value";
dataStructure -fmt "raw" -as "name=mapManager_pPlane2:string=value";
dataStructure -fmt "raw" -as "name=notes_pPlane4:string=value";
dataStructure -fmt "raw" -as "name=mapManager_pPlane5:string=value";
dataStructure -fmt "raw" -as "name=mapManager_baseScatter:string=value";
dataStructure -fmt "raw" -as "name=notes_pPlane3:string=value";
dataStructure -fmt "raw" -as "name=mapManager_snapshot_Combined:string=value";
dataStructure -fmt "raw" -as "name=mapManager_pPlane1:string=value";
dataStructure -fmt "raw" -as "name=OrgStruct:float[3]=Origin Point";
dataStructure -fmt "raw" -as "name=idStructure:int32=ID";
dataStructure -fmt "raw" -as "name=mapManager_trees_left1:string=value";
dataStructure -fmt "raw" -as "name=notes_baseLeaves:string=value";
dataStructure -fmt "raw" -as "name=notes_right_parShape:string=value";
dataStructure -fmt "raw" -as "name=FBXFastExportSetting_FBX:string=54";
dataStructure -fmt "raw" -as "name=mapManager_slopesMountainsGrass_Combined:string=value";
dataStructure -fmt "raw" -as "name=mapManager_juneBackYard:string=value";
dataStructure -fmt "raw" -as "name=notes_floorOrangeConcrete_c_geo:string=value";
dataStructure -fmt "raw" -as "name=notes_snapshot_CombinedGrass:string=value";
dataStructure -fmt "raw" -as "name=mapManager_slopesGroundGrassB_Combined:string=value";
dataStructure -fmt "raw" -as "name=mapManager_grassBase:string=value";
dataStructure -fmt "raw" -as "name=Offset:float[3]=value";
dataStructure -fmt "raw" -as "name=Blur3dMetaData:string=Blur3dValue";
dataStructure -fmt "raw" -as "name=notes_degraded:string=value";
dataStructure -fmt "raw" -as "name=mapManager_base_left:string=value";
dataStructure -fmt "raw" -as "name=notes_decayLeaves_parShape:string=value";
dataStructure -fmt "raw" -as "name=notes_wildPatchF_parShape:string=value";
dataStructure -fmt "raw" -as "name=mapManager_baseScatt:string=value";
dataStructure -fmt "raw" -as "name=notes_trees_left:string=value";
dataStructure -fmt "raw" -as "name=mapManager_baseLeaves:string=value";
dataStructure -fmt "raw" -as "name=mapManager_slopesGroundGrassC_Combined:string=value";
dataStructure -fmt "raw" -as "name=notes_wildPatchE_parShape:string=value";
dataStructure -fmt "raw" -as "name=notes_base_right:string=value";
dataStructure -fmt "raw" -as "name=notes_groundB_parShape:string=value";
dataStructure -fmt "raw" -as "name=notes_wildPatchC_parShape:string=value";
dataStructure -fmt "raw" -as "name=notes_slopesMountainsGrass_Combined:string=value";
dataStructure -fmt "raw" -as "name=notes_snapshot_Combined:string=value";
dataStructure -fmt "raw" -as "name=notes_ferns_parShape:string=value";
dataStructure -fmt "raw" -as "name=mapManager_suelo:string=value";
dataStructure -fmt "raw" -as "name=notes_pPlane5:string=value";
dataStructure -fmt "raw" -as "name=DiffEdge:float=value";
dataStructure -fmt "raw" -as "name=notes_pPlane6:string=value";
dataStructure -fmt "raw" -as "name=notes_widlPatchB_parShape:string=value";
dataStructure -fmt "raw" -as "name=notes_grassBase:string=value";
dataStructure -fmt "raw" -as "name=mapManager_floorOrangeConcrete_c_geo:string=value";
dataStructure -fmt "raw" -as "name=mapManager_pPlane3:string=value";
dataStructure -fmt "raw" -as "name=mapManager_grass_c_geo1:string=value";
dataStructure -fmt "raw" -as "name=Curvature:float=mean:float=gaussian:float=ABS:float=RMS";
dataStructure -fmt "raw" -as "name=notes_wildPatchA_parShape:string=value";
dataStructure -fmt "raw" -as "name=notes_bushes_parShape:string=value";
dataStructure -fmt "raw" -as "name=mapManager_grass_c_geo:string=value";
dataStructure -fmt "raw" -as "name=mapManager_ground:string=value";
dataStructure -fmt "raw" -as "name=mapManager_groundWoods_c_geo1:string=value";
dataStructure -fmt "raw" -as "name=notes_slopesGroundGrassA_Combined:string=value";
dataStructure -fmt "raw" -as "name=notes_baseScatter:string=value";
dataStructure -fmt "raw" -as "name=notes_suelo:string=value";
dataStructure -fmt "raw" -as "name=notes_slopes_parShape:string=value";
dataStructure -fmt "raw" -as "name=notes_juneBackYard:string=value";
dataStructure -fmt "raw" -as "name=mapManager_pPlane6:string=value";
dataStructure -fmt "raw" -as "name=mapManager_slopesGroundGrassD_Combined:string=value";
dataStructure -fmt "raw" -as "name=mapManager_slopesGroundGrassA_Combined:string=value";
dataStructure -fmt "raw" -as "name=mapManager_snapshot_CombinedGrass:string=value";
dataStructure -fmt "raw" -as "name=notes_trees_left1:string=value";
dataStructure -fmt "raw" -as "name=mapManager_pPlane4:string=value";
dataStructure -fmt "raw" -as "name=notes_decayGrassPatchD_parShape:string=value";
dataStructure -fmt "raw" -as "name=notes_grassJuneBackYard_parShape:string=value";
dataStructure -fmt "raw" -as "name=notes_snapshot_floor:string=value";
dataStructure -fmt "raw" -as "name=IdStruct:int32=ID";
dataStructure -fmt "raw" -as "name=notes_base_hojas:string=value";
dataStructure -fmt "raw" -as "name=notes_groundWoods_c_geo1:string=value";
dataStructure -fmt "raw" -as "name=notes_slopesGroundGrassB_Combined:string=value";
dataStructure -fmt "raw" -as "name=notes_pPlane2:string=value";
dataStructure -fmt "raw" -as "name=notes_decayGrassesCenter_parShape:string=value";
dataStructure -fmt "raw" -as "name=notes_decayGrassPatchA_parShape:string=value";
dataStructure -fmt "raw" -as "name=notes_base_left:string=value";
dataStructure -fmt "raw" -as "name=notes_ground:string=value";
dataStructure -fmt "raw" -as "name=notes_grass_c_geo:string=value";
dataStructure -fmt "raw" -as "name=notes_groundC_parShape:string=value";
// End of CorrectiveLocatorToImport.ma
