//Maya ASCII 2022 scene
//Name: CorrectiveLocatorToImportQuadBiped.ma
//Last modified: Thu, Sep 05, 2024 02:29:11 PM
//Codeset: 1252
requires maya "2022";
requires "stereoCamera" "10.0";
requires "mtoa" "4.1.1";
currentUnit -l centimeter -a degree -t film;
fileInfo "application" "maya";
fileInfo "product" "Maya 2022";
fileInfo "version" "2022";
fileInfo "cutIdentifier" "202303271415-baa69b5798";
fileInfo "osv" "Windows 10 Pro for Workstations v2009 (Build: 19045)";
fileInfo "UUID" "8842E6B7-4908-6EE8-1138-DB8F980E5433";
createNode transform -n "L_Side_Correctrive";
	rename -uid "527E3D1A-4DF4-591B-9037-B6BE6C01DCE3";
createNode transform -n "LOC_L_Shoulder_Low_Corr" -p "L_Side_Correctrive";
	rename -uid "27EB7DBD-4101-F180-8AD1-859A462AA029";
	setAttr ".t" -type "double3" 8.956600189011148 135.18492126467237 -4.2167353630756308 ;
	setAttr ".r" -type "double3" 90 0 0 ;
	setAttr ".s" -type "double3" 0.99999999999999978 0.99999999999999978 0.99999999999999933 ;
createNode locator -n "LOC_L_Shoulder_Low_CorrShape" -p "LOC_L_Shoulder_Low_Corr";
	rename -uid "84FB8296-41E6-8DA5-24ED-778377A4E1C1";
	setAttr -k off ".v";
	setAttr ".ove" yes;
	setAttr ".ovc" 18;
	setAttr ".los" -type "double3" 3 3 3 ;
createNode transform -n "LOC_L_Shoulder_Up_Corr" -p "L_Side_Correctrive";
	rename -uid "B05B3846-4BE6-68A1-DBB3-CC8FC21B6684";
	setAttr ".t" -type "double3" 8.956600189011148 145.18492126467237 -4.2167353630756308 ;
	setAttr ".r" -type "double3" -90 0 0 ;
	setAttr ".s" -type "double3" 0.99999999999999978 0.99999999999999978 0.99999999999999933 ;
createNode locator -n "LOC_L_Shoulder_Up_CorrShape" -p "LOC_L_Shoulder_Up_Corr";
	rename -uid "5AE6178F-4AB6-33E4-C1A9-2D9B3411B22C";
	setAttr -k off ".v";
	setAttr ".ove" yes;
	setAttr ".ovc" 18;
	setAttr ".los" -type "double3" 3 3 3 ;
createNode transform -n "LOC_L_Shoulder_Back_Corr" -p "L_Side_Correctrive";
	rename -uid "F4D2DF85-4140-ED79-2014-82BA1506A0AA";
	setAttr ".t" -type "double3" 8.956600189011148 140.18492126467237 -9.2167353630756281 ;
	setAttr ".r" -type "double3" 0 180 0 ;
	setAttr ".s" -type "double3" 0.99999999999999978 0.99999999999999978 0.99999999999999933 ;
createNode locator -n "LOC_L_Shoulder_Back_CorrShape" -p "LOC_L_Shoulder_Back_Corr";
	rename -uid "99CF60CF-443A-4488-8020-C38FF16FE51A";
	setAttr -k off ".v";
	setAttr ".ove" yes;
	setAttr ".ovc" 18;
	setAttr ".los" -type "double3" 3 3 3 ;
createNode transform -n "LOC_L_Elbow_Int_Corr" -p "L_Side_Correctrive";
	rename -uid "1D66BFA0-441C-5273-66F7-23B637DCA9DA";
	setAttr ".t" -type "double3" 20.950575865385865 123.91486619148269 -0.025545681246404772 ;
	setAttr ".r" -type "double3" -10.738304546538119 -39.739945670027879 -48.4103767839688 ;
	setAttr ".s" -type "double3" 0.99999999999999956 1 1 ;
createNode locator -n "LOC_L_Elbow_Int_CorrShape" -p "LOC_L_Elbow_Int_Corr";
	rename -uid "F026224D-4268-46D4-0C44-94A6CFFA333C";
	setAttr -k off ".v";
	setAttr ".ove" yes;
	setAttr ".ovc" 18;
	setAttr ".los" -type "double3" 3 3 3 ;
createNode transform -n "LOC_L_Elbow_Ext_Corr" -p "L_Side_Correctrive";
	rename -uid "835562C2-406C-2CC4-7FA0-118A7AFB5060";
	setAttr ".t" -type "double3" 23.726357044797503 117.9803267434868 -7.5804302193584707 ;
	setAttr ".r" -type "double3" 169.26169545346187 -39.739945670027886 -48.410376783968815 ;
	setAttr ".s" -type "double3" 0.99999999999999956 1 1 ;
createNode locator -n "LOC_L_Elbow_Ext_CorrShape" -p "LOC_L_Elbow_Ext_Corr";
	rename -uid "407CFD09-4363-536A-0983-36B3E5B59130";
	setAttr -k off ".v";
	setAttr ".ove" yes;
	setAttr ".ovc" 18;
	setAttr ".los" -type "double3" 3 3 3 ;
createNode transform -n "LOC_L_Wrist_Ext_Corr" -p "L_Side_Correctrive";
	rename -uid "E0C544ED-4FDF-574B-B229-AF815CD5AD5B";
	setAttr ".t" -type "double3" 38.778931187918964 108.79290614857987 9.3686521080068932 ;
	setAttr ".r" -type "double3" -120.66098509451491 -41.660461629675481 -50.75827504444991 ;
	setAttr ".s" -type "double3" 0.99999999999999956 0.99999999999999978 1.0000000000000004 ;
createNode locator -n "LOC_L_Wrist_Ext_CorrShape" -p "LOC_L_Wrist_Ext_Corr";
	rename -uid "C40D4881-430C-9149-04A2-7093A4B77101";
	setAttr -k off ".v";
	setAttr ".ove" yes;
	setAttr ".ovc" 18;
	setAttr ".los" -type "double3" 3 3 3 ;
createNode transform -n "LOC_L_Shoulder_Front_Corr" -p "L_Side_Correctrive";
	rename -uid "D0B691C7-4FEB-CC2E-889D-6D87DC424ADF";
	setAttr ".t" -type "double3" 8.956600189011148 140.18492126467237 0.78326463692436565 ;
	setAttr ".s" -type "double3" 0.99999999999999978 0.99999999999999978 0.99999999999999933 ;
createNode locator -n "LOC_L_Shoulder_Front_CorrShape" -p "LOC_L_Shoulder_Front_Corr";
	rename -uid "46939408-45D4-4736-5A27-5CAFE8A2860B";
	setAttr -k off ".v";
	setAttr ".ove" yes;
	setAttr ".ovc" 18;
	setAttr ".los" -type "double3" 3 3 3 ;
createNode transform -n "LOC_L_legRear_Knee_Ext_Corr" -p "L_Side_Correctrive";
	rename -uid "60B197F6-4876-A222-FD28-F287E009006D";
	setAttr ".t" -type "double3" 12.017939091150659 54.765702736016308 -6.4922605306905901 ;
createNode locator -n "LOC_L_legRear_Knee_Ext_CorrShape" -p "LOC_L_legRear_Knee_Ext_Corr";
	rename -uid "51D8704E-4405-54EB-1E46-B7AC72714A2B";
	setAttr -k off ".v";
	setAttr ".ove" yes;
	setAttr ".ovc" 18;
	setAttr ".los" -type "double3" 3 3 3 ;
createNode transform -n "LOC_L_legRear_Ankle_Int_Corr" -p "L_Side_Correctrive";
	rename -uid "64325E34-408A-3F54-7638-C381F744165E";
	setAttr ".t" -type "double3" 12.017939091150659 30.209896456946893 14.194332859734352 ;
	setAttr ".s" -type "double3" 0.99999999999999956 0.99999999999999978 1.0000000000000004 ;
createNode locator -n "LOC_L_legRear_Ankle_Int_CorrShape" -p "LOC_L_legRear_Ankle_Int_Corr";
	rename -uid "487AF45F-4A13-3A40-239F-73A22E374B32";
	setAttr -k off ".v";
	setAttr ".ove" yes;
	setAttr ".ovc" 18;
	setAttr ".los" -type "double3" 3 3 3 ;
createNode transform -n "LOC_L_legRear_Up_Ext_Corr" -p "L_Side_Correctrive";
	rename -uid "A5E4EE86-4E4F-EBE6-2CD2-27BC52360307";
	setAttr ".t" -type "double3" 12.017939091150659 82.419547786425881 -8.1942393099608068 ;
	setAttr ".s" -type "double3" 0.99999999999999956 1 1 ;
createNode locator -n "LOC_L_legRear_Up_Ext_CorrShape" -p "LOC_L_legRear_Up_Ext_Corr";
	rename -uid "0375F1C0-4A92-F7D4-FCCA-B3A0871DF5BF";
	setAttr -k off ".v";
	setAttr ".ove" yes;
	setAttr ".ovc" 18;
	setAttr ".los" -type "double3" 3 3 3 ;
createNode transform -n "LOC_L_legRear_Knee_Int_Corr" -p "L_Side_Correctrive";
	rename -uid "1B7B04D0-4CCB-F254-7E83-CB9970389167";
	setAttr ".t" -type "double3" 12.017939091150659 54.932484900211961 6.4924279114536745 ;
	setAttr ".s" -type "double3" 0.99999999999999978 1.0000000000000007 1.0000000000000002 ;
createNode locator -n "LOC_L_legRear_Knee_Int_CorrShape" -p "LOC_L_legRear_Knee_Int_Corr";
	rename -uid "65495497-4894-9F27-0FAA-488B9826BBCE";
	setAttr -k off ".v";
	setAttr ".ove" yes;
	setAttr ".ovc" 18;
	setAttr ".los" -type "double3" 3 3 3 ;
createNode transform -n "LOC_L_legRear_Ankle_Ext_Corr" -p "L_Side_Correctrive";
	rename -uid "C7C5C65C-4A58-6B2A-98F6-8381AE505F34";
	setAttr ".t" -type "double3" 12.017939091150659 17.810816951487606 -4.8260103075947463 ;
	setAttr ".r" -type "double3" 0 88.352067476292248 90 ;
createNode locator -n "LOC_L_legRear_Ankle_Ext_CorrShape" -p "LOC_L_legRear_Ankle_Ext_Corr";
	rename -uid "4D295C9C-4C7C-D465-E850-3AA81B419516";
	setAttr -k off ".v";
	setAttr ".ove" yes;
	setAttr ".ovc" 18;
	setAttr ".los" -type "double3" 3 3 3 ;
createNode transform -n "LOC_L_legRear_Up_Int_Corr" -p "L_Side_Correctrive";
	rename -uid "895CD518-44BD-AB6B-987B-4AB0677D1BB2";
	setAttr ".t" -type "double3" 12.017938174309961 77.076796053542196 8.235073875313784 ;
	setAttr ".s" -type "double3" 0.99999999999999956 1 1 ;
createNode locator -n "LOC_L_legRear_Up_Int_CorrShape" -p "LOC_L_legRear_Up_Int_Corr";
	rename -uid "885AA763-439A-2951-9D07-A290A08E43C1";
	setAttr -k off ".v";
	setAttr ".ove" yes;
	setAttr ".ovc" 18;
	setAttr ".los" -type "double3" 3 3 3 ;
createNode transform -n "LOC_L_legRear_SIDE_Corr" -p "L_Side_Correctrive";
	rename -uid "F1B00901-43CC-4E92-2491-2BAF14C7A878";
	setAttr ".t" -type "double3" 20.220780683740479 82.419548034667969 3.0353722908315923 ;
	setAttr ".s" -type "double3" 0.99999999999999956 1 1 ;
createNode locator -n "LOC_L_legRear_SIDE_CorrShape" -p "LOC_L_legRear_SIDE_Corr";
	rename -uid "992AECDA-42E0-BA15-AB4F-C492B4B25871";
	setAttr -k off ".v";
	setAttr ".ove" yes;
	setAttr ".ovc" 18;
	setAttr ".los" -type "double3" 3 3 3 ;
createNode transform -n "R_Side_Correctrive";
	rename -uid "067FCE64-4CD3-9E2F-FB2A-1E988E0EE8F6";
createNode transform -n "LOC_R_Shoulder_Front_Corr" -p "R_Side_Correctrive";
	rename -uid "0095A8F1-410A-F8AC-AC3F-FBA8D8917E22";
createNode locator -n "LOC_R_Shoulder_Front_CorrShape" -p "LOC_R_Shoulder_Front_Corr";
	rename -uid "E7683722-4888-A8E8-5FD6-698D1E2A84E9";
	setAttr -k off ".v";
	setAttr ".ove" yes;
	setAttr ".ovc" 20;
	setAttr ".los" -type "double3" 3 3 3 ;
createNode transform -n "LOC_R_Shoulder_Low_Corr" -p "R_Side_Correctrive";
	rename -uid "054CAEB9-4134-7E9C-ACE9-449E2C0D719A";
createNode locator -n "LOC_R_Shoulder_Low_CorrShape" -p "LOC_R_Shoulder_Low_Corr";
	rename -uid "1BD58A97-4FE1-4FC6-35FA-FC996641E066";
	setAttr -k off ".v";
	setAttr ".ove" yes;
	setAttr ".ovc" 20;
	setAttr ".los" -type "double3" 3 3 3 ;
createNode transform -n "LOC_R_Shoulder_Up_Corr" -p "R_Side_Correctrive";
	rename -uid "F0DB163F-4C31-0B9C-B401-DB87033924BB";
createNode locator -n "LOC_R_Shoulder_Up_CorrShape" -p "LOC_R_Shoulder_Up_Corr";
	rename -uid "998692CD-4F3B-EFA4-B7CE-5EB2EDF89E8B";
	setAttr -k off ".v";
	setAttr ".ove" yes;
	setAttr ".ovc" 20;
	setAttr ".los" -type "double3" 3 3 3 ;
createNode transform -n "LOC_R_Shoulder_Back_Corr" -p "R_Side_Correctrive";
	rename -uid "C4100ABE-4C4D-325F-6CDD-54AAA7126484";
createNode locator -n "LOC_R_Shoulder_Back_CorrShape" -p "LOC_R_Shoulder_Back_Corr";
	rename -uid "B802824F-49AC-0173-BF45-9D8021EC4DB6";
	setAttr -k off ".v";
	setAttr ".ove" yes;
	setAttr ".ovc" 20;
	setAttr ".los" -type "double3" 3 3 3 ;
createNode transform -n "LOC_R_Elbow_Int_Corr" -p "R_Side_Correctrive";
	rename -uid "C9062850-464A-BB5E-FACC-48BDED1B8C9F";
	setAttr ".s" -type "double3" 1 1.0000000000000002 1 ;
createNode locator -n "LOC_R_Elbow_Int_CorrShape" -p "LOC_R_Elbow_Int_Corr";
	rename -uid "8D3F8CF8-4F7A-5592-9B1B-7A962E5D125E";
	setAttr -k off ".v";
	setAttr ".ove" yes;
	setAttr ".ovc" 20;
	setAttr ".los" -type "double3" 3 3 3 ;
createNode transform -n "LOC_R_Elbow_Ext_Corr" -p "R_Side_Correctrive";
	rename -uid "F2E67CB3-4FD8-7CAF-9933-C3BF34D4CCBB";
createNode locator -n "LOC_R_Elbow_Ext_CorrShape" -p "LOC_R_Elbow_Ext_Corr";
	rename -uid "948BB92B-4A6E-AD3B-91EC-1CB6593AE819";
	setAttr -k off ".v";
	setAttr ".ove" yes;
	setAttr ".ovc" 20;
	setAttr ".los" -type "double3" 3 3 3 ;
createNode transform -n "LOC_R_Wrist_Ext_Corr" -p "R_Side_Correctrive";
	rename -uid "13D0F243-4075-34BF-935E-398E73F25341";
createNode locator -n "LOC_R_Wrist_Ext_CorrShape" -p "LOC_R_Wrist_Ext_Corr";
	rename -uid "D8AA03B7-44FE-354E-64D6-E39E31AC063D";
	setAttr -k off ".v";
	setAttr ".ove" yes;
	setAttr ".ovc" 20;
	setAttr ".los" -type "double3" 3 3 3 ;
createNode transform -n "LOC_R_legRear_Knee_Int_Corr" -p "R_Side_Correctrive";
	rename -uid "DD5D7D37-4C3D-52BD-9712-C8ACB647542C";
createNode locator -n "LOC_R_legRear_Knee_Int_CorrShape" -p "LOC_R_legRear_Knee_Int_Corr";
	rename -uid "8F37567E-4D19-0806-5E9B-E880AA879825";
	setAttr -k off ".v";
	setAttr ".ove" yes;
	setAttr ".ovc" 20;
	setAttr ".los" -type "double3" 3 3 3 ;
createNode transform -n "LOC_R_legRear_Knee_Ext_Corr" -p "R_Side_Correctrive";
	rename -uid "41E8001D-4EAE-45F1-4D95-D9AD270286A5";
createNode locator -n "LOC_R_legRear_Knee_Ext_CorrShape" -p "LOC_R_legRear_Knee_Ext_Corr";
	rename -uid "329757BF-4F1F-F417-8449-6688648A65E4";
	setAttr -k off ".v";
	setAttr ".ove" yes;
	setAttr ".ovc" 20;
	setAttr ".los" -type "double3" 3 3 3 ;
createNode transform -n "LOC_R_legRear_Up_Ext_Corr" -p "R_Side_Correctrive";
	rename -uid "D588C3BE-4B55-E38C-D929-179B3EC7F7D6";
createNode locator -n "LOC_R_legRear_Up_Ext_CorrShape" -p "LOC_R_legRear_Up_Ext_Corr";
	rename -uid "B5E0496E-43F4-FF5C-7401-04BDF4564089";
	setAttr -k off ".v";
	setAttr ".ove" yes;
	setAttr ".ovc" 20;
	setAttr ".los" -type "double3" 3 3 3 ;
createNode transform -n "LOC_R_legRear_Ankle_Ext_Corr" -p "R_Side_Correctrive";
	rename -uid "3AE19DD7-4172-C7C0-335F-D890BA5E71B6";
createNode locator -n "LOC_R_legRear_Ankle_Ext_CorrShape" -p "LOC_R_legRear_Ankle_Ext_Corr";
	rename -uid "91A7B96E-417B-6E4A-8C32-F69C0FC35FFD";
	setAttr -k off ".v";
	setAttr ".ove" yes;
	setAttr ".ovc" 20;
	setAttr ".los" -type "double3" 3 3 3 ;
createNode transform -n "LOC_R_legRear_Ankle_Int_Corr" -p "R_Side_Correctrive";
	rename -uid "6D4A2030-4A5A-03CF-E406-9EA091F4F295";
createNode locator -n "LOC_R_legRear_Ankle_Int_CorrShape" -p "LOC_R_legRear_Ankle_Int_Corr";
	rename -uid "956A0169-4916-663D-C401-0F88CD323EB7";
	setAttr -k off ".v";
	setAttr ".ove" yes;
	setAttr ".ovc" 20;
	setAttr ".los" -type "double3" 3 3 3 ;
createNode transform -n "LOC_R_legRear_Up_Int_Corr" -p "R_Side_Correctrive";
	rename -uid "37347E58-4086-62E4-3B9D-71997FCF69B7";
	setAttr ".s" -type "double3" 1 1.0000000000000002 1 ;
createNode locator -n "LOC_R_legRear_Up_Int_CorrShape" -p "LOC_R_legRear_Up_Int_Corr";
	rename -uid "F2C3EDCB-49E6-EBBF-95B4-73B8C22C8340";
	setAttr -k off ".v";
	setAttr ".ove" yes;
	setAttr ".ovc" 20;
	setAttr ".los" -type "double3" 3 3 3 ;
createNode transform -n "LOC_R_legRear_SIDE_Corr" -p "R_Side_Correctrive";
	rename -uid "42AF591D-4D63-F533-7D63-D8869E6B3DC4";
createNode locator -n "LOC_R_legRear_SIDE_CorrShape" -p "LOC_R_legRear_SIDE_Corr";
	rename -uid "2568BF66-4054-59A2-9D9F-239EA954ADCA";
	setAttr -k off ".v";
	setAttr ".ove" yes;
	setAttr ".ovc" 20;
	setAttr ".los" -type "double3" 3 3 3 ;
createNode transform -n "Arrow_Curve";
	rename -uid "31C9A73C-4E49-9670-FAD9-888F4C8502BA";
	setAttr ".ovc" 17;
	setAttr ".t" -type "double3" 0 75.153663575801346 44.324813126459631 ;
createNode nurbsCurve -n "curveShape1" -p "Arrow_Curve";
	rename -uid "CE02E8B5-4DA2-2DDE-3EC6-0DB916561161";
	setAttr -k off ".v";
	setAttr ".ove" yes;
	setAttr ".ovrgbf" yes;
	setAttr ".ovc" 17;
	setAttr ".ovrgb" -type "float3" 0.32245129 0.073238954 1 ;
	setAttr ".cc" -type "nurbsCurve" 
		1 7 0 no 3
		8 0 1 2 3 4 5 6 7
		8
		0.3259791361414841 0 3.0159745148441075e-17
		0.32597913614148361 0 1.704737877074481
		0.65195827228296765 0 1.704737877074481
		-7.2383388356258564e-16 0 2.5613253818106152
		-0.65195827228296876 0 1.7047378770744808
		-0.32597913614148449 0 1.704737877074481
		-0.3259791361414841 0 -3.0159745148441075e-17
		0.3259791361414841 0 3.0159745148441075e-17
		;
createNode multiplyDivide -n "MLD_LOC_L_Shoulder_Front_Corr_01";
	rename -uid "87A58F75-472B-CA6F-5305-5DB59790B764";
	setAttr ".i2" -type "float3" -1 1 1 ;
createNode unitConversion -n "unitConversion306";
	rename -uid "E3015CE1-4584-A5BC-7823-D5B8DE84BE77";
	setAttr ".cf" 0.017453292519943295;
createNode multiplyDivide -n "MLD_LOC_L_Shoulder_Front_Corr_02";
	rename -uid "DAC42F43-4389-09E7-A5C9-70B540B35DF6";
	setAttr ".i2" -type "float3" 1 -1 -1 ;
createNode unitConversion -n "unitConversion305";
	rename -uid "4F4F8656-4F5E-1E3D-94CD-F5A48BE9627A";
	setAttr ".cf" 57.295779513082323;
createNode multiplyDivide -n "MLD_LOC_L_Shoulder_Low_Corr_01";
	rename -uid "4E2A3382-4814-1366-FB8F-2EB4FEE7578C";
	setAttr ".i2" -type "float3" -1 1 1 ;
createNode unitConversion -n "unitConversion307";
	rename -uid "D5142997-4FF6-56C2-C329-5A9F92379EEA";
	setAttr ".cf" 0.017453292519943295;
createNode multiplyDivide -n "MLD_LOC_L_Shoulder_Low_Corr_02";
	rename -uid "65B68A48-45AC-133F-25CF-939CA52DB216";
	setAttr ".i2" -type "float3" 1 -1 -1 ;
createNode unitConversion -n "unitConversion3";
	rename -uid "0E8A820A-4162-CF8C-235C-14943CFCDB33";
	setAttr ".cf" 57.295779513082323;
createNode multiplyDivide -n "MLD_LOC_L_Shoulder_Up_Corr_01";
	rename -uid "1CEF5541-4588-732C-82BC-2B9854DEEB4B";
	setAttr ".i2" -type "float3" -1 1 1 ;
createNode unitConversion -n "unitConversion6";
	rename -uid "7E6B3127-4BBB-F6B9-76FA-7E8BB884CFC2";
	setAttr ".cf" 0.017453292519943295;
createNode multiplyDivide -n "MLD_LOC_L_Shoulder_Up_Corr_02";
	rename -uid "8E2D28D8-481B-303A-26D8-B9A6B38F01F5";
	setAttr ".i2" -type "float3" 1 -1 -1 ;
createNode unitConversion -n "unitConversion308";
	rename -uid "A52F7AFC-4ED2-AE13-3806-CDA8C2E28B48";
	setAttr ".cf" 57.295779513082323;
createNode multiplyDivide -n "MLD_LOC_L_Shoulder_Back_Corr_01";
	rename -uid "E52A226B-4C86-14F8-8FD8-9286DF4EF657";
	setAttr ".i2" -type "float3" -1 1 1 ;
createNode unitConversion -n "unitConversion319";
	rename -uid "93A45CEF-4CF5-F9DA-2F69-8AACBA6E4B5A";
	setAttr ".cf" 0.017453292519943295;
createNode multiplyDivide -n "MLD_LOC_L_Shoulder_Back_Corr_02";
	rename -uid "657CB3CB-4FE5-3EAA-49D9-25B092F60344";
	setAttr ".i2" -type "float3" 1 -1 -1 ;
createNode unitConversion -n "unitConversion318";
	rename -uid "F0199937-4385-A11C-7BAF-418C39561267";
	setAttr ".cf" 57.295779513082323;
createNode multiplyDivide -n "MLD_LOC_L_Elbow_Int_Corr_01";
	rename -uid "A299997C-4D68-0AB3-7BC2-30BE8E27950D";
	setAttr ".i2" -type "float3" -1 1 1 ;
createNode unitConversion -n "unitConversion311";
	rename -uid "3588BF96-4175-0822-D069-4AB597CFE33A";
	setAttr ".cf" 0.017453292519943295;
createNode multiplyDivide -n "MLD_LOC_L_Elbow_Int_Corr_02";
	rename -uid "B3B25DF5-4963-8643-8905-ABA505C84DF2";
	setAttr ".i2" -type "float3" 1 -1 -1 ;
createNode unitConversion -n "unitConversion9";
	rename -uid "4C29E0D3-4A2B-D61C-8692-608BE0E0FF69";
	setAttr ".cf" 57.295779513082323;
createNode multiplyDivide -n "MLD_LOC_L_Elbow_Ext_Corr_01";
	rename -uid "F48C52BE-425C-5435-7BCD-95901EF5F55E";
	setAttr ".i2" -type "float3" -1 1 1 ;
createNode unitConversion -n "unitConversion310";
	rename -uid "1AAF1985-4DE9-3B3A-D104-6D9152CF16E4";
	setAttr ".cf" 0.017453292519943295;
createNode multiplyDivide -n "MLD_LOC_L_Elbow_Ext_Corr_02";
	rename -uid "26351F5B-411E-B4E1-D906-2F9C37041DDA";
	setAttr ".i2" -type "float3" 1 -1 -1 ;
createNode unitConversion -n "unitConversion309";
	rename -uid "97AE88BC-4EBA-46D2-7984-D9A86C8BC31F";
	setAttr ".cf" 57.295779513082323;
createNode multiplyDivide -n "MLD_LOC_L_Wrist_Ext_Corr_01";
	rename -uid "F035B824-49A1-1A39-83F1-AC882B8F0CB7";
	setAttr ".i2" -type "float3" -1 1 1 ;
createNode unitConversion -n "unitConversion12";
	rename -uid "E27E4951-42C4-F04F-AB59-2F9390EE6870";
	setAttr ".cf" 0.017453292519943295;
createNode multiplyDivide -n "MLD_LOC_L_Wrist_Ext_Corr_02";
	rename -uid "F9D54FB6-49F7-50DA-304C-6CBB92F3D3D4";
	setAttr ".i2" -type "float3" 1 -1 -1 ;
createNode unitConversion -n "unitConversion312";
	rename -uid "BC55CE54-400B-5D7E-12FE-60847BA1BC09";
	setAttr ".cf" 57.295779513082323;
createNode multiplyDivide -n "MLD_LOC_L_legRear_Knee_Int_Corr_01";
	rename -uid "58B83B53-4938-6728-2A3C-07B88B63E4EA";
	setAttr ".i2" -type "float3" -1 1 1 ;
createNode unitConversion -n "unitConversion335";
	rename -uid "B63C3E25-42DC-1B15-D3E9-9DAD86777239";
	setAttr ".cf" 0.017453292519943295;
createNode multiplyDivide -n "MLD_LOC_L_legRear_Knee_Int_Corr_02";
	rename -uid "94D6F42C-44D9-FB00-2DD1-4AB948926E57";
	setAttr ".i2" -type "float3" 1 -1 -1 ;
createNode unitConversion -n "unitConversion334";
	rename -uid "C3D08B1B-417F-BB4C-A489-7BA6F212D0EC";
	setAttr ".cf" 57.295779513082323;
createNode multiplyDivide -n "MLD_LOC_L_legRear_Knee_Ext_Corr_01";
	rename -uid "6D9259CF-45BC-DAD6-0C4B-638725286DD2";
	setAttr ".i2" -type "float3" -1 1 1 ;
createNode unitConversion -n "unitConversion329";
	rename -uid "43EF278B-43DD-9D92-BC61-1EA2C0B02FC6";
	setAttr ".cf" 0.017453292519943295;
createNode multiplyDivide -n "MLD_LOC_L_legRear_Knee_Ext_Corr_02";
	rename -uid "5C6CADBE-42C1-3BB7-BE84-76ABC33EFADF";
	setAttr ".i2" -type "float3" 1 -1 -1 ;
createNode unitConversion -n "unitConversion328";
	rename -uid "7F9AAAD8-4BEF-518B-4B14-A79EBFC1AF01";
	setAttr ".cf" 57.295779513082323;
createNode multiplyDivide -n "MLD_LOC_L_legRear_Up_Ext_Corr_01";
	rename -uid "EFE6E6CE-4B05-BC50-9968-838F0BECC32D";
	setAttr ".i2" -type "float3" -1 1 1 ;
createNode unitConversion -n "unitConversion333";
	rename -uid "667BB67A-434F-A2AB-5F89-9CA0E6A4DFCF";
	setAttr ".cf" 0.017453292519943295;
createNode multiplyDivide -n "MLD_LOC_L_legRear_Up_Ext_Corr_02";
	rename -uid "545D4F8E-4BBF-AFD8-CD82-4083D8CC7349";
	setAttr ".i2" -type "float3" 1 -1 -1 ;
createNode unitConversion -n "unitConversion332";
	rename -uid "9C1D0A32-41ED-5DA4-329A-838B45ABA114";
	setAttr ".cf" 57.295779513082323;
createNode multiplyDivide -n "MLD_LOC_L_legRear_Ankle_Ext_Corr_01";
	rename -uid "DA0C3EDA-43CC-4F03-1FBC-D8902E5D495F";
	setAttr ".i2" -type "float3" -1 1 1 ;
createNode unitConversion -n "unitConversion337";
	rename -uid "FFB6839D-42B2-8412-F402-759E40FEB1BB";
	setAttr ".cf" 0.017453292519943295;
createNode multiplyDivide -n "MLD_LOC_L_legRear_Ankle_Ext_Corr_02";
	rename -uid "368B18AB-4141-E623-8C8C-268DB0B3E219";
	setAttr ".i2" -type "float3" 1 -1 -1 ;
createNode unitConversion -n "unitConversion336";
	rename -uid "441D702B-4FBF-1AFB-63DF-498470BCF6EF";
	setAttr ".cf" 57.295779513082323;
createNode multiplyDivide -n "MLD_LOC_L_legRear_Ankle_Int_Corr_01";
	rename -uid "D819C7A6-4FA6-DF19-DC28-118D7B689280";
	setAttr ".i2" -type "float3" -1 1 1 ;
createNode unitConversion -n "unitConversion331";
	rename -uid "08858D1D-4427-78E6-06B9-69950805639E";
	setAttr ".cf" 0.017453292519943295;
createNode multiplyDivide -n "MLD_LOC_L_legRear_Ankle_Int_Corr_02";
	rename -uid "F4D85345-4747-B36D-028C-A99C0C473086";
	setAttr ".i2" -type "float3" 1 -1 -1 ;
createNode unitConversion -n "unitConversion330";
	rename -uid "EDF10CC5-46DC-6694-E4E8-44881654A9D1";
	setAttr ".cf" 57.295779513082323;
createNode multiplyDivide -n "MLD_LOC_L_legRear_Up_Int_Corr_02";
	rename -uid "06F5D6E4-4557-6734-5363-B78998BDA23B";
	setAttr ".i2" -type "float3" -1 1 1 ;
createNode unitConversion -n "unitConversion339";
	rename -uid "22128C87-47E3-9986-FE8F-D28B234E6E73";
	setAttr ".cf" 0.017453292519943295;
createNode multiplyDivide -n "MLD_LOC_L_legRear_Up_Int_Corr_04";
	rename -uid "8AA9E205-4D2C-4A0F-40CB-CB9F5C1E58AC";
	setAttr ".i2" -type "float3" 1 -1 -1 ;
createNode unitConversion -n "unitConversion338";
	rename -uid "CBC37539-422D-0F9C-E371-5BA8DD0D3439";
	setAttr ".cf" 57.295779513082323;
createNode multiplyDivide -n "MLD_LOC_L_legRear_SIDE_Corr_01";
	rename -uid "800E3452-4912-8340-10ED-CB976CCF20D2";
	setAttr ".i2" -type "float3" -1 1 1 ;
createNode unitConversion -n "unitConversion343";
	rename -uid "1E03F9A9-42A8-19C8-B0E1-C8AA94D6ED7C";
	setAttr ".cf" 0.017453292519943295;
createNode multiplyDivide -n "MLD_LOC_L_legRear_SIDE_Corr_02";
	rename -uid "EB523DA6-458F-EA13-D57A-639D7168AFDF";
	setAttr ".i2" -type "float3" 1 -1 -1 ;
createNode unitConversion -n "unitConversion342";
	rename -uid "C3D1A3DF-41A0-C1D1-10E9-D087D89A7444";
	setAttr ".cf" 57.295779513082323;
select -ne :time1;
	setAttr ".o" 1;
	setAttr ".unw" 1;
select -ne :hardwareRenderingGlobals;
	setAttr ".otfna" -type "stringArray" 22 "NURBS Curves" "NURBS Surfaces" "Polygons" "Subdiv Surface" "Particles" "Particle Instance" "Fluids" "Strokes" "Image Planes" "UI" "Lights" "Cameras" "Locators" "Joints" "IK Handles" "Deformers" "Motion Trails" "Components" "Hair Systems" "Follicles" "Misc. UI" "Ornaments"  ;
	setAttr ".otfva" -type "Int32Array" 22 0 1 1 1 1 1
		 1 1 1 0 0 0 0 0 0 0 0 0
		 0 0 0 0 ;
	setAttr ".fprt" yes;
select -ne :renderPartition;
	setAttr -s 2 ".st";
select -ne :renderGlobalsList1;
select -ne :defaultShaderList1;
	setAttr -s 5 ".s";
select -ne :postProcessList1;
	setAttr -s 2 ".p";
select -ne :defaultRenderingList1;
select -ne :initialShadingGroup;
	setAttr ".ro" yes;
select -ne :initialParticleSE;
	setAttr ".ro" yes;
select -ne :defaultResolution;
	setAttr ".pa" 1;
select -ne :defaultColorMgtGlobals;
	setAttr ".cfe" yes;
	setAttr ".cfp" -type "string" "<MAYA_RESOURCES>/OCIO-configs/Maya-legacy/config.ocio";
	setAttr ".vtn" -type "string" "sRGB gamma (legacy)";
	setAttr ".vn" -type "string" "sRGB gamma";
	setAttr ".dn" -type "string" "legacy";
	setAttr ".wsn" -type "string" "scene-linear Rec 709/sRGB";
	setAttr ".otn" -type "string" "sRGB gamma (legacy)";
	setAttr ".potn" -type "string" "sRGB gamma (legacy)";
select -ne :hardwareRenderGlobals;
	setAttr ".ctrs" 256;
	setAttr ".btrs" 512;
connectAttr ":defaultHardwareRenderGlobals.msg" ":perspShape.b" -na;
connectAttr ":ikSystem.msg" ":perspShape.b" -na;
connectAttr "MLD_LOC_L_Shoulder_Front_Corr_01.o" "LOC_R_Shoulder_Front_Corr.t";
connectAttr "unitConversion306.o" "LOC_R_Shoulder_Front_Corr.r";
connectAttr "MLD_LOC_L_Shoulder_Low_Corr_01.o" "LOC_R_Shoulder_Low_Corr.t";
connectAttr "unitConversion307.o" "LOC_R_Shoulder_Low_Corr.r";
connectAttr "MLD_LOC_L_Shoulder_Up_Corr_01.o" "LOC_R_Shoulder_Up_Corr.t";
connectAttr "unitConversion6.o" "LOC_R_Shoulder_Up_Corr.r";
connectAttr "MLD_LOC_L_Shoulder_Back_Corr_01.o" "LOC_R_Shoulder_Back_Corr.t";
connectAttr "unitConversion319.o" "LOC_R_Shoulder_Back_Corr.r";
connectAttr "MLD_LOC_L_Elbow_Int_Corr_01.o" "LOC_R_Elbow_Int_Corr.t";
connectAttr "unitConversion311.o" "LOC_R_Elbow_Int_Corr.r";
connectAttr "MLD_LOC_L_Elbow_Ext_Corr_01.o" "LOC_R_Elbow_Ext_Corr.t";
connectAttr "unitConversion310.o" "LOC_R_Elbow_Ext_Corr.r";
connectAttr "MLD_LOC_L_Wrist_Ext_Corr_01.o" "LOC_R_Wrist_Ext_Corr.t";
connectAttr "unitConversion12.o" "LOC_R_Wrist_Ext_Corr.r";
connectAttr "MLD_LOC_L_legRear_Knee_Int_Corr_01.o" "LOC_R_legRear_Knee_Int_Corr.t"
		;
connectAttr "unitConversion335.o" "LOC_R_legRear_Knee_Int_Corr.r";
connectAttr "MLD_LOC_L_legRear_Knee_Ext_Corr_01.o" "LOC_R_legRear_Knee_Ext_Corr.t"
		;
connectAttr "unitConversion329.o" "LOC_R_legRear_Knee_Ext_Corr.r";
connectAttr "MLD_LOC_L_legRear_Up_Ext_Corr_01.o" "LOC_R_legRear_Up_Ext_Corr.t";
connectAttr "unitConversion333.o" "LOC_R_legRear_Up_Ext_Corr.r";
connectAttr "MLD_LOC_L_legRear_Ankle_Ext_Corr_01.o" "LOC_R_legRear_Ankle_Ext_Corr.t"
		;
connectAttr "unitConversion337.o" "LOC_R_legRear_Ankle_Ext_Corr.r";
connectAttr "MLD_LOC_L_legRear_Ankle_Int_Corr_01.o" "LOC_R_legRear_Ankle_Int_Corr.t"
		;
connectAttr "unitConversion331.o" "LOC_R_legRear_Ankle_Int_Corr.r";
connectAttr "MLD_LOC_L_legRear_Up_Int_Corr_02.o" "LOC_R_legRear_Up_Int_Corr.t";
connectAttr "unitConversion339.o" "LOC_R_legRear_Up_Int_Corr.r";
connectAttr "MLD_LOC_L_legRear_SIDE_Corr_01.o" "LOC_R_legRear_SIDE_Corr.t";
connectAttr "unitConversion343.o" "LOC_R_legRear_SIDE_Corr.r";
connectAttr "LOC_L_Shoulder_Front_Corr.t" "MLD_LOC_L_Shoulder_Front_Corr_01.i1";
connectAttr "MLD_LOC_L_Shoulder_Front_Corr_02.o" "unitConversion306.i";
connectAttr "unitConversion305.o" "MLD_LOC_L_Shoulder_Front_Corr_02.i1";
connectAttr "LOC_L_Shoulder_Front_Corr.r" "unitConversion305.i";
connectAttr "LOC_L_Shoulder_Low_Corr.t" "MLD_LOC_L_Shoulder_Low_Corr_01.i1";
connectAttr "MLD_LOC_L_Shoulder_Low_Corr_02.o" "unitConversion307.i";
connectAttr "unitConversion3.o" "MLD_LOC_L_Shoulder_Low_Corr_02.i1";
connectAttr "LOC_L_Shoulder_Low_Corr.r" "unitConversion3.i";
connectAttr "LOC_L_Shoulder_Up_Corr.t" "MLD_LOC_L_Shoulder_Up_Corr_01.i1";
connectAttr "MLD_LOC_L_Shoulder_Up_Corr_02.o" "unitConversion6.i";
connectAttr "unitConversion308.o" "MLD_LOC_L_Shoulder_Up_Corr_02.i1";
connectAttr "LOC_L_Shoulder_Up_Corr.r" "unitConversion308.i";
connectAttr "LOC_L_Shoulder_Back_Corr.t" "MLD_LOC_L_Shoulder_Back_Corr_01.i1";
connectAttr "MLD_LOC_L_Shoulder_Back_Corr_02.o" "unitConversion319.i";
connectAttr "unitConversion318.o" "MLD_LOC_L_Shoulder_Back_Corr_02.i1";
connectAttr "LOC_L_Shoulder_Back_Corr.r" "unitConversion318.i";
connectAttr "LOC_L_Elbow_Int_Corr.t" "MLD_LOC_L_Elbow_Int_Corr_01.i1";
connectAttr "MLD_LOC_L_Elbow_Int_Corr_02.o" "unitConversion311.i";
connectAttr "unitConversion9.o" "MLD_LOC_L_Elbow_Int_Corr_02.i1";
connectAttr "LOC_L_Elbow_Int_Corr.r" "unitConversion9.i";
connectAttr "LOC_L_Elbow_Ext_Corr.t" "MLD_LOC_L_Elbow_Ext_Corr_01.i1";
connectAttr "MLD_LOC_L_Elbow_Ext_Corr_02.o" "unitConversion310.i";
connectAttr "unitConversion309.o" "MLD_LOC_L_Elbow_Ext_Corr_02.i1";
connectAttr "LOC_L_Elbow_Ext_Corr.r" "unitConversion309.i";
connectAttr "LOC_L_Wrist_Ext_Corr.t" "MLD_LOC_L_Wrist_Ext_Corr_01.i1";
connectAttr "MLD_LOC_L_Wrist_Ext_Corr_02.o" "unitConversion12.i";
connectAttr "unitConversion312.o" "MLD_LOC_L_Wrist_Ext_Corr_02.i1";
connectAttr "LOC_L_Wrist_Ext_Corr.r" "unitConversion312.i";
connectAttr "LOC_L_legRear_Knee_Int_Corr.t" "MLD_LOC_L_legRear_Knee_Int_Corr_01.i1"
		;
connectAttr "MLD_LOC_L_legRear_Knee_Int_Corr_02.o" "unitConversion335.i";
connectAttr "unitConversion334.o" "MLD_LOC_L_legRear_Knee_Int_Corr_02.i1";
connectAttr "LOC_L_legRear_Knee_Int_Corr.r" "unitConversion334.i";
connectAttr "LOC_L_legRear_Knee_Ext_Corr.t" "MLD_LOC_L_legRear_Knee_Ext_Corr_01.i1"
		;
connectAttr "MLD_LOC_L_legRear_Knee_Ext_Corr_02.o" "unitConversion329.i";
connectAttr "unitConversion328.o" "MLD_LOC_L_legRear_Knee_Ext_Corr_02.i1";
connectAttr "LOC_L_legRear_Knee_Ext_Corr.r" "unitConversion328.i";
connectAttr "LOC_L_legRear_Up_Ext_Corr.t" "MLD_LOC_L_legRear_Up_Ext_Corr_01.i1";
connectAttr "MLD_LOC_L_legRear_Up_Ext_Corr_02.o" "unitConversion333.i";
connectAttr "unitConversion332.o" "MLD_LOC_L_legRear_Up_Ext_Corr_02.i1";
connectAttr "LOC_L_legRear_Up_Ext_Corr.r" "unitConversion332.i";
connectAttr "LOC_L_legRear_Ankle_Ext_Corr.t" "MLD_LOC_L_legRear_Ankle_Ext_Corr_01.i1"
		;
connectAttr "MLD_LOC_L_legRear_Ankle_Ext_Corr_02.o" "unitConversion337.i";
connectAttr "unitConversion336.o" "MLD_LOC_L_legRear_Ankle_Ext_Corr_02.i1";
connectAttr "LOC_L_legRear_Ankle_Ext_Corr.r" "unitConversion336.i";
connectAttr "LOC_L_legRear_Ankle_Int_Corr.t" "MLD_LOC_L_legRear_Ankle_Int_Corr_01.i1"
		;
connectAttr "MLD_LOC_L_legRear_Ankle_Int_Corr_02.o" "unitConversion331.i";
connectAttr "unitConversion330.o" "MLD_LOC_L_legRear_Ankle_Int_Corr_02.i1";
connectAttr "LOC_L_legRear_Ankle_Int_Corr.r" "unitConversion330.i";
connectAttr "LOC_L_legRear_Up_Int_Corr.t" "MLD_LOC_L_legRear_Up_Int_Corr_02.i1";
connectAttr "MLD_LOC_L_legRear_Up_Int_Corr_04.o" "unitConversion339.i";
connectAttr "unitConversion338.o" "MLD_LOC_L_legRear_Up_Int_Corr_04.i1";
connectAttr "LOC_L_legRear_Up_Int_Corr.r" "unitConversion338.i";
connectAttr "LOC_L_legRear_SIDE_Corr.t" "MLD_LOC_L_legRear_SIDE_Corr_01.i1";
connectAttr "MLD_LOC_L_legRear_SIDE_Corr_02.o" "unitConversion343.i";
connectAttr "unitConversion342.o" "MLD_LOC_L_legRear_SIDE_Corr_02.i1";
connectAttr "LOC_L_legRear_SIDE_Corr.r" "unitConversion342.i";
dataStructure -fmt "raw" -as "name=faceConnectOutputStructure:bool=faceConnectOutput:string[200]=faceConnectOutputAttributes:string[200]=faceConnectOutputGroups";
dataStructure -fmt "raw" -as "name=IdStruct:int32=ID";
dataStructure -fmt "raw" -as "name=notes_groundD_parShape:string=value";
dataStructure -fmt "raw" -as "name=notes_groundWoods_c_geo1:string=value";
dataStructure -fmt "raw" -as "name=notes_snapshot_CombinedGrass:string=value";
dataStructure -fmt "raw" -as "name=notes_juneBackYard:string=value";
dataStructure -fmt "raw" -as "name=mapManager_base_right:string=value";
dataStructure -fmt "raw" -as "name=notes_slopesGroundGrassC_Combined:string=value";
dataStructure -fmt "raw" -as "name=mapManager_pPlane5:string=value";
dataStructure -fmt "raw" -as "name=mapManager_snapshot_CombinedGrass:string=value";
dataStructure -fmt "raw" -as "name=notes_left_parShape:string=value";
dataStructure -fmt "raw" -as "name=mapManager_groundWoods_c_geo1:string=value";
dataStructure -fmt "raw" -as "name=notes_slopesGroundGrassA_Combined:string=value";
dataStructure -fmt "raw" -as "name=notes_slopesMountainsGrass_Combined:string=value";
dataStructure -fmt "raw" -as "name=notes_slopesGroundGrassD_Combined:string=value";
dataStructure -fmt "raw" -as "name=notes_wildPatchC_parShape:string=value";
dataStructure -fmt "raw" -as "name=externalContentTablZ:string=nodZ:string=key:string=upath:uint32=upathcrc:string=rpath:string=roles";
dataStructure -fmt "raw" -as "name=Curvature:float=mean:float=gaussian:float=ABS:float=RMS";
dataStructure -fmt "raw" -as "name=notes_groundB_parShape:string=value";
dataStructure -fmt "raw" -as "name=mapManager_pPlane4:string=value";
dataStructure -fmt "raw" -as "name=notes_pPlane1:string=value";
dataStructure -fmt "raw" -as "name=notes_grass_c_geo1:string=value";
dataStructure -fmt "raw" -as "name=notes_mountains_parShape:string=value";
dataStructure -fmt "raw" -as "name=faceConnectMarkerStructure:bool=faceConnectMarker:string[200]=faceConnectOutputGroups";
dataStructure -fmt "raw" -as "name=notes_pPlane4:string=value";
dataStructure -fmt "raw" -as "name=mapManager_snapshot_Combined:string=value";
dataStructure -fmt "raw" -as "name=mapManager_pPlane2:string=value";
dataStructure -fmt "raw" -as "name=notes_base_hojas:string=value";
dataStructure -fmt "raw" -as "name=mapManager_ground:string=value";
dataStructure -fmt "raw" -as "name=notes_polySurface56:string=value";
dataStructure -fmt "raw" -as "name=notes_baseScatt:string=value";
dataStructure -fmt "raw" -as "name=notes_grassBase:string=value";
dataStructure -fmt "raw" -as "name=mapManager_ground_c_geo:string=value";
dataStructure -fmt "raw" -as "name=DiffArea:float=value";
dataStructure -fmt "raw" -as "name=idStructure:int32=ID";
dataStructure -fmt "raw" -as "name=OffStruct:float=Offset";
dataStructure -fmt "raw" -as "name=notes_wildPatchH_parShape:string=value";
dataStructure -fmt "raw" -as "name=notes_pPlane3:string=value";
dataStructure -fmt "raw" -as "name=notes_base_right:string=value";
dataStructure -fmt "raw" -as "name=mapManager_pPlane1:string=value";
dataStructure -fmt "raw" -as "name=mapManager_juneBackYard:string=value";
dataStructure -fmt "raw" -as "name=keyValueStructure:string=value";
dataStructure -fmt "raw" -as "name=mapManager_base_hojas:string=value";
dataStructure -fmt "raw" -as "name=Offset:float[3]=value";
dataStructure -fmt "raw" -as "name=notes_snapshot_Combined:string=value";
dataStructure -fmt "raw" -as "name=notes_pPlane2:string=value";
dataStructure -fmt "raw" -as "name=notes_ferns_parShape:string=value";
dataStructure -fmt "raw" -as "name=notes_trees_left:string=value";
dataStructure -fmt "raw" -as "name=notes_grassJuneBackYard_parShape:string=value";
dataStructure -fmt "raw" -as "name=mapManager_polySurface56:string=value";
dataStructure -fmt "raw" -as "name=Blur3dMetaData:string=Blur3dValue";
dataStructure -fmt "raw" -as "name=notes_baseScatter:string=value";
dataStructure -fmt "raw" -as "name=notes_pPlane6:string=value";
dataStructure -fmt "raw" -as "name=notes_bushes_parShape:string=value";
dataStructure -fmt "raw" -as "name=mapManager_pPlane3:string=value";
dataStructure -fmt "raw" -as "name=mapManager_trees_left:string=value";
dataStructure -fmt "raw" -as "name=notes_wildPatchD_parShape:string=value";
dataStructure -fmt "raw" -as "name=mapManager_slopesGroundGrassD_Combined:string=value";
dataStructure -fmt "raw" -as "name=notes_snapshot_floor:string=value";
dataStructure -fmt "raw" -as "name=mapManager_grass_c_geo:string=value";
dataStructure -fmt "raw" -as "name=mapManager_trees_left1:string=value";
dataStructure -fmt "raw" -as "name=notes_ground_c_geo:string=value";
dataStructure -fmt "raw" -as "name=DiffEdge:float=value";
dataStructure -fmt "raw" -as "name=notes_pPlane5:string=value";
dataStructure -fmt "raw" -as "name=notes_slopes_parShape:string=value";
dataStructure -fmt "raw" -as "name=FBXFastExportSetting_FBX:string=54";
dataStructure -fmt "raw" -as "name=mapManager_baseScatt:string=value";
dataStructure -fmt "raw" -as "name=notes_suelo:string=value";
dataStructure -fmt "raw" -as "name=mapManager_degraded:string=value";
dataStructure -fmt "raw" -as "name=notes_ground:string=value";
dataStructure -fmt "raw" -as "name=notes_degraded:string=value";
dataStructure -fmt "raw" -as "name=notes_slopesGroundGrassB_Combined:string=value";
dataStructure -fmt "raw" -as "name=notes_decayGrassPatchA_parShape:string=value";
dataStructure -fmt "raw" -as "name=notes_groundA_parShape:string=value";
dataStructure -fmt "raw" -as "name=notes_baseLeaves:string=value";
dataStructure -fmt "raw" -as "name=mapManager_slopesMountainsGrass_Combined:string=value";
dataStructure -fmt "raw" -as "name=notes_wildPatchA_parShape:string=value";
dataStructure -fmt "raw" -as "name=mapManager_baseScatter:string=value";
dataStructure -fmt "raw" -as "name=notes_groundC_parShape:string=value";
dataStructure -fmt "raw" -as "name=notes_wildPatchG_parShape:string=value";
dataStructure -fmt "raw" -as "name=FBXFastExportSetting_MB:string=19424";
dataStructure -fmt "raw" -as "name=notes_base_left:string=value";
dataStructure -fmt "raw" -as "name=notes_right_parShape:string=value";
dataStructure -fmt "raw" -as "name=notes_decayLeaves_parShape:string=value";
dataStructure -fmt "raw" -as "name=notes_trees_parShape:string=value";
dataStructure -fmt "raw" -as "name=mapManager_suelo:string=value";
dataStructure -fmt "raw" -as "name=notes_trees_left1:string=value";
dataStructure -fmt "raw" -as "name=notes_decayGrassPatchC_parShape:string=value";
dataStructure -fmt "raw" -as "name=notes_wildPatchF_parShape:string=value";
dataStructure -fmt "raw" -as "name=mapManager_snapshot_floor:string=value";
dataStructure -fmt "raw" -as "name=mapManager_floorOrangeConcrete_c_geo:string=value";
dataStructure -fmt "raw" -as "name=notes_widlPatchB_parShape:string=value";
dataStructure -fmt "raw" -as "name=notes_decayGrassesCenter_parShape:string=value";
dataStructure -fmt "raw" -as "name=mapManager_slopesGroundGrassB_Combined:string=value";
dataStructure -fmt "raw" -as "name=notes_decayLeavesCarousel_parShape:string=value";
dataStructure -fmt "raw" -as "name=mapManager_baseLeaves:string=value";
dataStructure -fmt "raw" -as "name=OrgStruct:float[3]=Origin Point";
dataStructure -fmt "raw" -as "name=mapManager_grass_c_geo1:string=value";
dataStructure -fmt "raw" -as "name=mapManager_base_left:string=value";
dataStructure -fmt "raw" -as "name=mapManager_pPlane6:string=value";
dataStructure -fmt "raw" -as "name=mapManager_grassBase:string=value";
dataStructure -fmt "raw" -as "name=notes_wildPatchE_parShape:string=value";
dataStructure -fmt "raw" -as "name=notes_decayGrassPatchD_parShape:string=value";
dataStructure -fmt "raw" -as "name=notes_floorOrangeConcrete_c_geo:string=value";
dataStructure -fmt "raw" -as "name=mapManager_slopesGroundGrassA_Combined:string=value";
dataStructure -fmt "raw" -as "name=notes_decayGrassPatchB_parShape:string=value";
dataStructure -fmt "raw" -as "name=notes_wildPatchDegraded_parShape:string=value";
dataStructure -fmt "raw" -as "name=mapManager_slopesGroundGrassC_Combined:string=value";
dataStructure -fmt "raw" -as "name=notes_grass_c_geo:string=value";
// End of CorrectiveLocatorToImportQuadBiped.ma
