//Maya ASCII 2018ff09 scene
//Name: SQS_Ctrls_v002.ma
//Last modified: Fri, Sep 27, 2019 11:37:26 AM
//Codeset: 1252
requires maya "2018ff09";
requires "stereoCamera" "10.0";
currentUnit -l centimeter -a degree -t pal;
fileInfo "application" "maya";
fileInfo "product" "Maya 2018";
fileInfo "version" "2018";
fileInfo "cutIdentifier" "201811122215-49253d42f6";
fileInfo "osv" "Microsoft Windows 7 Business Edition, 64-bit Windows 7 Service Pack 1 (Build 7601)\n";
createNode transform -n "headSqs_move_Ctrl_Grp";
	rename -uid "76A00879-43B4-F89C-2A0F-A0BD371C3428";
	setAttr ".t" -type "double3" 3.5612645871600895e-16 41.897428855964449 -1.1102230246251565e-16 ;
	setAttr ".s" -type "double3" 1 0.99999999999999978 0.99999999999999978 ;
createNode transform -n "headSqs_move_Ctrl" -p "headSqs_move_Ctrl_Grp";
	rename -uid "32C84ED2-4D19-04F8-4966-A5B6A6D24AA1";
	setAttr -l on -k off ".v";
createNode nurbsCurve -n "headSqs_move_CtrlShape" -p "headSqs_move_Ctrl";
	rename -uid "8C0C0242-4791-4CA0-8E34-8CAD60C7B268";
	setAttr -k off ".v";
	setAttr ".ove" yes;
	setAttr ".ovrgbf" yes;
	setAttr ".ovc" 18;
	setAttr ".ovrgb" -type "float3" 1 0.30720001 0 ;
	setAttr ".tw" yes;
createNode transform -n "headSqs_Ctrl_Grp" -p "headSqs_move_Ctrl";
	rename -uid "32B60BFA-4616-886B-D4BF-93B3028D165F";
	setAttr ".ove" yes;
	setAttr ".ovc" 15;
createNode transform -n "headSqs_Ctrl" -p "headSqs_Ctrl_Grp";
	rename -uid "F2F5C478-4679-CD35-1661-4F98B87ACD61";
	addAttr -ci true -sn "Falloff" -ln "Falloff" -at "double";
	addAttr -ci true -sn "Effect_Cage" -ln "Effect_Cage" -min 0 -max 1 -en "off:on" 
		-at "enum";
	setAttr -l on -k off ".v";
	setAttr -l on -k off ".rx";
	setAttr -l on -k off ".rz";
	setAttr -l on -k off ".sx";
	setAttr -l on -k off ".sy";
	setAttr -l on -k off ".sz";
	setAttr -k on ".Falloff" 0.5;
	setAttr -k on ".Effect_Cage" 1;
createNode nurbsCurve -n "headSqs_CtrlShape" -p "headSqs_Ctrl";
	rename -uid "307D16CC-4926-DA65-3814-AAB00CC2C8A4";
	setAttr -k off ".v";
	setAttr ".ove" yes;
	setAttr ".ovc" 30;
	setAttr ".tw" yes;
createNode nurbsCurve -n "headSqs_CtrlShapeOrig" -p "headSqs_Ctrl";
	rename -uid "02EBF33E-4B42-2262-6936-9DA80A3EDDAF";
	setAttr -k off ".v";
	setAttr ".io" yes;
	setAttr ".cc" -type "nurbsCurve" 
		1 72 0 no 3
		73 0 2.3135629999999998 4.6271259999999996 6.9406889999999999 8.5778230000000004
		 10.214957999999999 11.849695000000001 13.484432 15.119168999999999 16.744737000000001
		 18.379473999999998 20.014211 21.648949000000002 23.283685999999999 24.920819999999999
		 26.557953999999999 28.871517000000001 31.185079999999999 33.498643000000001 35.812206000000003
		 38.125770000000003 40.439332999999998 42.076467000000001 43.713600999999997 45.348337999999998
		 46.983074999999999 48.617812000000001 50.252549999999999 51.878118000000001 53.512855000000002
		 55.147592000000003 56.782328999999997 58.419463 60.056598000000001 62.370161000000003
		 64.683723999999998 66.997287 69.310850000000002 71.624413000000004 73.937976000000006
		 75.575109999999995 77.212243999999998 78.846981999999997 80.481718999999998 82.116455999999999
		 83.742024000000001 85.376761000000002 87.011498000000003 88.646235000000004 90.280972000000006
		 91.918107000000006 93.555240999999995 95.868803999999997 98.182366999999999 100.49593
		 102.809493 105.12305600000001 107.43661899999999 109.07375399999999 110.710888 112.345625
		 113.980362 115.615099 117.240667 118.875404 120.510142 122.144879 123.779616 125.41674999999999
		 127.053884 129.367447 131.68100999999999 133.994574
		73
		0 -1.1021221955816802 -2.6729317661145306
		0.50243325674878936 -0.88924622481785665 -2.5907515229625258
		1.0048665134975787 -0.68669001080461967 -2.4177564595996781
		1.5073000771444343 -0.50155414495350248 -2.1600108817904355
		1.0048665134975787 -0.50155414495350248 -2.1600108817904355
		0.50243325674878936 -0.50155414495350248 -2.1600108817904355
		0.50243325674878936 -0.3403280432333905 -1.8265495616703791
		0.50243325674878936 -0.2086632964437373 -1.4290616327393089
		0.50243325674878936 -0.11117526920153913 -0.98148026714830583
		0.4994947077763961 -0.051280999845530813 -0.50243325674878903
		0.98148026714830627 -0.11117526920153913 -0.50243325674878903
		1.4290616327393091 -0.20866329644373685 -0.50243325674878891
		1.8265495616703795 -0.34032804323338961 -0.5024332567487888
		2.1600108817904355 -0.50155414495350137 -0.5024332567487888
		2.1600108817904355 -0.50155414495350159 -1.0048665134975781
		2.1600108817904355 -0.50155414495350203 -1.5073000771444338
		2.4177564595996781 -0.68669001080461911 -1.0048665134975781
		2.5907515229625266 -0.88924622481785598 -0.50243325674878869
		2.6729317661145315 -1.1021221955816798 1.2998235770467821e-15
		2.5907515229625266 -0.88924622481785531 0.50243325674879014
		2.4177564595996781 -0.686690010804617 1.0048665134975789
		2.1600108817904355 -0.5015541449535007 1.5073000771444343
		2.1600108817904355 -0.50155414495350104 1.0048665134975789
		2.1600108817904355 -0.50155414495350104 0.50243325674878991
		1.8265495616703795 -0.34032804323338961 0.50243325674878991
		1.4290616327393091 -0.20866329644373635 0.50243325674878969
		0.98148026714830627 -0.11117526920153818 0.50243325674878969
		0.4994947077763961 -0.051280999845530049 0.50243325674878969
		0.50243325674878936 -0.1111752692015379 0.98148026714830627
		0.50243325674878936 -0.20866329644373605 1.4290616327393098
		0.50243325674878936 -0.34032804323338917 1.8265495616703804
		0.50243325674878936 -0.50155414495350026 2.1600108817904364
		1.0048665134975787 -0.50155414495350026 2.1600108817904364
		1.5073000771444343 -0.50155414495350026 2.1600108817904364
		1.0048665134975787 -0.68669001080461645 2.4177564595996786
		0.50243325674878936 -0.88924622481785465 2.5907515229625271
		0 -1.1021221955816776 2.6729317661145315
		-0.50243325674878936 -0.88924622481785465 2.5907515229625271
		-1.0048665134975787 -0.68669001080461645 2.4177564595996786
		-1.5073000771444343 -0.50155414495350026 2.1600108817904364
		-1.0048665134975787 -0.50155414495350026 2.1600108817904364
		-0.50243325674878936 -0.50155414495350026 2.1600108817904364
		-0.50243325674878936 -0.34032804323338917 1.8265495616703804
		-0.50243325674878936 -0.20866329644373605 1.4290616327393098
		-0.50243325674878936 -0.1111752692015379 0.98148026714830627
		-0.4994947077763961 -0.051280999845530049 0.50243325674878969
		-0.98148026714830627 -0.11117526920153818 0.50243325674878969
		-1.4290616327393091 -0.20866329644373635 0.50243325674878969
		-1.8265495616703795 -0.34032804323338961 0.50243325674878991
		-2.1600108817904355 -0.50155414495350104 0.50243325674878991
		-2.1600108817904355 -0.50155414495350104 1.0048665134975789
		-2.1600108817904355 -0.5015541449535007 1.5073000771444343
		-2.4177564595996781 -0.686690010804617 1.0048665134975789
		-2.5907515229625266 -0.88924622481785531 0.50243325674879014
		-2.6729317661145315 -1.1021221955816798 1.2998235770467821e-15
		-2.5907515229625266 -0.88924622481785598 -0.50243325674878869
		-2.4177564595996781 -0.68669001080461911 -1.0048665134975781
		-2.1600108817904355 -0.50155414495350203 -1.5073000771444338
		-2.1600108817904355 -0.50155414495350159 -1.0048665134975781
		-2.1600108817904355 -0.50155414495350137 -0.5024332567487888
		-1.8265495616703795 -0.34032804323338961 -0.5024332567487888
		-1.4290616327393091 -0.20866329644373685 -0.50243325674878891
		-0.98148026714830627 -0.11117526920153913 -0.50243325674878903
		-0.50243325674878936 -0.051280999845530813 -0.49949470777639576
		-0.50243325674878936 -0.11117526920153913 -0.98148026714830583
		-0.50243325674878936 -0.2086632964437373 -1.4290616327393089
		-0.50243325674878936 -0.3403280432333905 -1.8265495616703791
		-0.50243325674878936 -0.50155414495350248 -2.1600108817904355
		-1.0048665134975787 -0.50155414495350248 -2.1600108817904355
		-1.5073000771444343 -0.50155414495350248 -2.1600108817904355
		-1.0048665134975787 -0.68669001080461967 -2.4177564595996781
		-0.50243325674878936 -0.88924622481785665 -2.5907515229625258
		0 -1.1021221955816802 -2.6729317661145306
		;
createNode nurbsCurve -n "headSqs_CtrlShapeOrig1" -p "headSqs_Ctrl";
	rename -uid "4B055464-4B97-1036-2C2E-A4A7E6BD873F";
	setAttr -k off ".v";
	setAttr ".io" yes;
	setAttr ".cc" -type "nurbsCurve" 
		1 72 0 no 3
		73 0 2.3135629999999998 4.6271259999999996 6.9406889999999999 8.5778230000000004
		 10.214957999999999 11.849695000000001 13.484432 15.119168999999999 16.744737000000001
		 18.379473999999998 20.014211 21.648949000000002 23.283685999999999 24.920819999999999
		 26.557953999999999 28.871517000000001 31.185079999999999 33.498643000000001 35.812206000000003
		 38.125770000000003 40.439332999999998 42.076467000000001 43.713600999999997 45.348337999999998
		 46.983074999999999 48.617812000000001 50.252549999999999 51.878118000000001 53.512855000000002
		 55.147592000000003 56.782328999999997 58.419463 60.056598000000001 62.370161000000003
		 64.683723999999998 66.997287 69.310850000000002 71.624413000000004 73.937976000000006
		 75.575109999999995 77.212243999999998 78.846981999999997 80.481718999999998 82.116455999999999
		 83.742024000000001 85.376761000000002 87.011498000000003 88.646235000000004 90.280972000000006
		 91.918107000000006 93.555240999999995 95.868803999999997 98.182366999999999 100.49593
		 102.809493 105.12305600000001 107.43661899999999 109.07375399999999 110.710888 112.345625
		 113.980362 115.615099 117.240667 118.875404 120.510142 122.144879 123.779616 125.41674999999999
		 127.053884 129.367447 131.68100999999999 133.994574
		73
		1.0005814358714529e-16 -1.2497456263558879 -3.4239250829739247
		0.64359810905429082 -0.97705951251610479 -3.3186552816942361
		1.2871962181085816 -0.71759261902323146 -3.0970551106057918
		1.9307947202877558 -0.48044053647411994 -2.7668927173586524
		1.2871962181085816 -0.48044053647411994 -2.7668927173586524
		0.64359810905429082 -0.48044053647411994 -2.7668927173586524
		0.64359810905429082 -0.27391596270542951 -2.3397413053267839
		0.64359810905429082 -0.10525837301625518 -1.8305742149805908
		0.64359810905429082 0.019620124069145258 -1.2572393159208841
		0.63983393831799473 0.096342430928678599 -0.64359810905429049
		1.2572393159208846 0.019620124069145258 -0.64359810905429049
		1.830574214980591 -0.10525837301625464 -0.64359810905429038
		2.3397413053267848 -0.27391596270542828 -0.64359810905429016
		2.7668927173586524 -0.4804405364741185 -0.64359810905429016
		2.7668927173586524 -0.48044053647411872 -1.287196218108581
		2.7668927173586524 -0.48044053647411933 -1.9307947202877553
		3.0970551106057918 -0.7175926190232309 -1.287196218108581
		3.318655281694237 -0.97705951251610401 -0.64359810905429005
		3.4239250829739261 -1.2497456263558875 1.540252756316786e-15
		3.318655281694237 -0.97705951251610335 0.64359810905429182
		3.0970551106057918 -0.71759261902322857 1.2871962181085819
		2.7668927173586524 -0.48044053647411777 1.9307947202877558
		2.7668927173586524 -0.48044053647411811 1.2871962181085819
		2.7668927173586524 -0.48044053647411811 0.6435981090542916
		2.3397413053267848 -0.27391596270542828 0.6435981090542916
		1.830574214980591 -0.10525837301625392 0.64359810905429116
		1.2572393159208846 0.019620124069146472 0.64359810905429116
		0.63983393831799473 0.09634243092867957 0.64359810905429116
		0.64359810905429082 0.019620124069146861 1.2572393159208846
		0.64359810905429082 -0.10525837301625357 1.8305742149805917
		0.64359810905429082 -0.27391596270542773 2.3397413053267861
		0.64359810905429082 -0.48044053647411722 2.7668927173586542
		1.2871962181085816 -0.48044053647411722 2.7668927173586542
		1.9307947202877558 -0.48044053647411722 2.7668927173586542
		1.2871962181085816 -0.71759261902322802 3.0970551106057922
		0.64359810905429082 -0.97705951251610257 3.3186552816942374
		1.0005814358714529e-16 -1.2497456263558848 3.4239250829739261
		-0.64359810905429082 -0.97705951251610257 3.3186552816942374
		-1.2871962181085816 -0.71759261902322802 3.0970551106057922
		-1.9307947202877558 -0.48044053647411722 2.7668927173586542
		-1.2871962181085816 -0.48044053647411722 2.7668927173586542
		-0.64359810905429082 -0.48044053647411722 2.7668927173586542
		-0.64359810905429082 -0.27391596270542773 2.3397413053267861
		-0.64359810905429082 -0.10525837301625357 1.8305742149805917
		-0.64359810905429082 0.019620124069146861 1.2572393159208846
		-0.63983393831799473 0.09634243092867957 0.64359810905429116
		-1.2572393159208846 0.019620124069146472 0.64359810905429116
		-1.830574214980591 -0.10525837301625392 0.64359810905429116
		-2.3397413053267848 -0.27391596270542828 0.6435981090542916
		-2.7668927173586524 -0.48044053647411811 0.6435981090542916
		-2.7668927173586524 -0.48044053647411811 1.2871962181085819
		-2.7668927173586524 -0.48044053647411777 1.9307947202877558
		-3.0970551106057918 -0.71759261902322857 1.2871962181085819
		-3.318655281694237 -0.97705951251610335 0.64359810905429182
		-3.4239250829739261 -1.2497456263558875 1.540252756316786e-15
		-3.318655281694237 -0.97705951251610401 -0.64359810905429005
		-3.0970551106057918 -0.7175926190232309 -1.287196218108581
		-2.7668927173586524 -0.48044053647411933 -1.9307947202877553
		-2.7668927173586524 -0.48044053647411872 -1.287196218108581
		-2.7668927173586524 -0.4804405364741185 -0.64359810905429016
		-2.3397413053267848 -0.27391596270542828 -0.64359810905429016
		-1.830574214980591 -0.10525837301625464 -0.64359810905429038
		-1.2572393159208846 0.019620124069145258 -0.64359810905429049
		-0.64359810905429082 0.096342430928678599 -0.63983393831799429
		-0.64359810905429082 0.019620124069145258 -1.2572393159208841
		-0.64359810905429082 -0.10525837301625518 -1.8305742149805908
		-0.64359810905429082 -0.27391596270542951 -2.3397413053267839
		-0.64359810905429082 -0.48044053647411994 -2.7668927173586524
		-1.2871962181085816 -0.48044053647411994 -2.7668927173586524
		-1.9307947202877558 -0.48044053647411994 -2.7668927173586524
		-1.2871962181085816 -0.71759261902323146 -3.0970551106057918
		-0.64359810905429082 -0.97705951251610479 -3.3186552816942361
		1.0005814358714529e-16 -1.2497456263558879 -3.4239250829739247
		;
createNode nurbsCurve -n "headSqs_CtrlShapeOrig2" -p "headSqs_Ctrl";
	rename -uid "D88DF9F8-42B2-F0EF-9499-6896BA978109";
	setAttr -k off ".v";
	setAttr ".io" yes;
	setAttr ".cc" -type "nurbsCurve" 
		1 72 0 no 3
		73 0 2.3135629999999998 4.6271259999999996 6.9406889999999999 8.5778230000000004
		 10.214957999999999 11.849695000000001 13.484432 15.119168999999999 16.744737000000001
		 18.379473999999998 20.014211 21.648949000000002 23.283685999999999 24.920819999999999
		 26.557953999999999 28.871517000000001 31.185079999999999 33.498643000000001 35.812206000000003
		 38.125770000000003 40.439332999999998 42.076467000000001 43.713600999999997 45.348337999999998
		 46.983074999999999 48.617812000000001 50.252549999999999 51.878118000000001 53.512855000000002
		 55.147592000000003 56.782328999999997 58.419463 60.056598000000001 62.370161000000003
		 64.683723999999998 66.997287 69.310850000000002 71.624413000000004 73.937976000000006
		 75.575109999999995 77.212243999999998 78.846981999999997 80.481718999999998 82.116455999999999
		 83.742024000000001 85.376761000000002 87.011498000000003 88.646235000000004 90.280972000000006
		 91.918107000000006 93.555240999999995 95.868803999999997 98.182366999999999 100.49593
		 102.809493 105.12305600000001 107.43661899999999 109.07375399999999 110.710888 112.345625
		 113.980362 115.615099 117.240667 118.875404 120.510142 122.144879 123.779616 125.41674999999999
		 127.053884 129.367447 131.68100999999999 133.994574
		73
		7.2844652853453878e-17 -0.90984384721997524 -2.492696997203852
		0.46855437399122707 -0.71132202192430372 -2.4160581364849101
		0.93710874798245414 -0.52242409611988538 -2.2547280642240279
		1.4056634081777284 -0.34977187104919094 -2.0143621723622989
		0.93710874798245414 -0.34977187104919094 -2.0143621723622989
		0.46855437399122707 -0.34977187104919094 -2.0143621723622989
		0.46855437399122707 -0.19941718383889825 -1.703386021798162
		0.46855437399122707 -0.076630540677685821 -1.3327005522204849
		0.46855437399122707 0.014283906092199336 -0.91529942729955427
		0.46581397025459587 0.070139527723149506 -0.46855437399122674
		0.91529942729955438 0.014283906092199336 -0.46855437399122674
		1.3327005522204851 -0.076630540677685433 -0.46855437399122668
		1.7033860217981625 -0.19941718383889731 -0.46855437399122651
		2.0143621723622989 -0.34977187104918972 -0.46855437399122651
		2.0143621723622989 -0.34977187104918994 -0.93710874798245347
		2.0143621723622989 -0.34977187104919044 -1.4056634081777284
		2.2547280642240279 -0.52242409611988494 -0.93710874798245347
		2.4160581364849105 -0.71132202192430349 -0.46855437399122646
		2.4926969972038528 -0.9098438472199748 1.1213397862289161e-15
		2.4160581364849105 -0.71132202192430305 0.46855437399122785
		2.2547280642240279 -0.52242409611988327 0.93710874798245436
		2.0143621723622989 -0.34977187104918928 1.4056634081777284
		2.0143621723622989 -0.3497718710491895 0.93710874798245436
		2.0143621723622989 -0.3497718710491895 0.46855437399122762
		1.7033860217981625 -0.19941718383889731 0.46855437399122762
		1.3327005522204851 -0.076630540677684864 0.46855437399122729
		0.91529942729955438 0.014283906092200238 0.46855437399122729
		0.46581397025459587 0.070139527723150158 0.46855437399122729
		0.46855437399122707 0.014283906092200514 0.91529942729955438
		0.46855437399122707 -0.076630540677684628 1.3327005522204858
		0.46855437399122707 -0.19941718383889701 1.7033860217981631
		0.46855437399122707 -0.34977187104918894 2.0143621723622993
		0.93710874798245414 -0.34977187104918894 2.0143621723622993
		1.4056634081777284 -0.34977187104918894 2.0143621723622993
		0.93710874798245414 -0.52242409611988283 2.2547280642240284
		0.46855437399122707 -0.71132202192430249 2.416058136484911
		7.2844652853453878e-17 -0.90984384721997291 2.4926969972038528
		-0.46855437399122707 -0.71132202192430249 2.416058136484911
		-0.93710874798245414 -0.52242409611988283 2.2547280642240284
		-1.4056634081777284 -0.34977187104918894 2.0143621723622993
		-0.93710874798245414 -0.34977187104918894 2.0143621723622993
		-0.46855437399122707 -0.34977187104918894 2.0143621723622993
		-0.46855437399122707 -0.19941718383889701 1.7033860217981631
		-0.46855437399122707 -0.076630540677684628 1.3327005522204858
		-0.46855437399122707 0.014283906092200514 0.91529942729955438
		-0.46581397025459587 0.070139527723150158 0.46855437399122729
		-0.91529942729955438 0.014283906092200238 0.46855437399122729
		-1.3327005522204851 -0.076630540677684864 0.46855437399122729
		-1.7033860217981625 -0.19941718383889731 0.46855437399122762
		-2.0143621723622989 -0.3497718710491895 0.46855437399122762
		-2.0143621723622989 -0.3497718710491895 0.93710874798245436
		-2.0143621723622989 -0.34977187104918928 1.4056634081777284
		-2.2547280642240279 -0.52242409611988327 0.93710874798245436
		-2.4160581364849105 -0.71132202192430305 0.46855437399122785
		-2.4926969972038528 -0.9098438472199748 1.1213397862289161e-15
		-2.4160581364849105 -0.71132202192430349 -0.46855437399122646
		-2.2547280642240279 -0.52242409611988494 -0.93710874798245347
		-2.0143621723622989 -0.34977187104919044 -1.4056634081777284
		-2.0143621723622989 -0.34977187104918994 -0.93710874798245347
		-2.0143621723622989 -0.34977187104918972 -0.46855437399122651
		-1.7033860217981625 -0.19941718383889731 -0.46855437399122651
		-1.3327005522204851 -0.076630540677685433 -0.46855437399122668
		-0.91529942729955438 0.014283906092199336 -0.46855437399122674
		-0.46855437399122707 0.070139527723149506 -0.46581397025459531
		-0.46855437399122707 0.014283906092199336 -0.91529942729955427
		-0.46855437399122707 -0.076630540677685821 -1.3327005522204849
		-0.46855437399122707 -0.19941718383889825 -1.703386021798162
		-0.46855437399122707 -0.34977187104919094 -2.0143621723622989
		-0.93710874798245414 -0.34977187104919094 -2.0143621723622989
		-1.4056634081777284 -0.34977187104919094 -2.0143621723622989
		-0.93710874798245414 -0.52242409611988538 -2.2547280642240279
		-0.46855437399122707 -0.71132202192430372 -2.4160581364849101
		7.2844652853453878e-17 -0.90984384721997524 -2.492696997203852
		;
createNode nurbsCurve -n "headSqs_move_CtrlShapeOrig" -p "headSqs_move_Ctrl";
	rename -uid "CC380324-4F61-406D-6225-6584385208F6";
	setAttr -k off ".v";
	setAttr ".io" yes;
	setAttr ".cc" -type "nurbsCurve" 
		3 8 2 no 3
		13 -2 -1 0 1 2 3 4 5 6 7 8 9 10
		11
		3.1695849336888355 -0.82624918864348762 -3.1695849336888258
		-5.1139622996527274e-16 -0.82624918864348762 -4.4824700003161704
		-3.1695849336888284 -0.82624918864348762 -3.1695849336888284
		-4.4824700003161704 -0.82624918864348806 -2.141554502971403e-15
		-3.1695849336888298 -0.82624918864348806 3.1695849336888275
		-1.3506556915102696e-15 -0.82624918864348829 4.4824700003161713
		3.1695849336888258 -0.82624918864348806 3.1695849336888298
		4.4824700003161704 -0.82624918864348806 1.5648965418536491e-15
		3.1695849336888355 -0.82624918864348762 -3.1695849336888258
		-5.1139622996527274e-16 -0.82624918864348762 -4.4824700003161704
		-3.1695849336888284 -0.82624918864348762 -3.1695849336888284
		;
createNode nurbsCurve -n "headSqs_move_CtrlShapeOrig1" -p "headSqs_move_Ctrl";
	rename -uid "935FB7A4-4E4B-56E1-1E3D-48BFD90F13A9";
	setAttr -k off ".v";
	setAttr ".io" yes;
	setAttr ".cc" -type "nurbsCurve" 
		3 8 2 no 3
		13 -2 -1 0 1 2 3 4 5 6 7 8 9 10
		11
		4.0601191151425908 -0.89636267803462388 -4.0601191151425775
		-5.5502119712557691e-16 -0.89636267803462388 -5.7418755174848926
		-4.0601191151425811 -0.89636267803462388 -4.0601191151425811
		-5.7418755174848926 -0.89636267803462433 -2.8680231591208672e-15
		-4.0601191151425837 -0.89636267803462433 4.0601191151425793
		-1.6300810089531783e-15 -0.89636267803462455 5.7418755174848934
		4.0601191151425775 -0.89636267803462433 4.0601191151425837
		5.7418755174848926 -0.89636267803462433 1.8798012567784349e-15
		4.0601191151425908 -0.89636267803462388 -4.0601191151425775
		-5.5502119712557691e-16 -0.89636267803462388 -5.7418755174848926
		-4.0601191151425811 -0.89636267803462388 -4.0601191151425811
		;
createNode nurbsCurve -n "headSqs_move_CtrlShapeOrig2" -p "headSqs_move_Ctrl";
	rename -uid "C3B1888E-4C07-9B5A-D4D2-47AB5E26E04B";
	setAttr -k off ".v";
	setAttr ".io" yes;
	setAttr ".cc" -type "nurbsCurve" 
		3 8 2 no 3
		13 -2 -1 0 1 2 3 4 5 6 7 8 9 10
		11
		2.9558610312277591 -0.6539625290807195 -2.9558610312277471
		-4.0406832449083351e-16 -0.6539625290807195 -4.180218758852412
		-2.9558610312277507 -0.6539625290807195 -2.9558610312277507
		-4.180218758852412 -0.65396252908071972 -2.0893625543419804e-15
		-2.9558610312277529 -0.65396252908071972 2.9558610312277489
		-1.1867368408327853e-15 -0.65396252908071972 4.1802187588524129
		2.9558610312277471 -0.65396252908071972 2.9558610312277529
		4.180218758852412 -0.65396252908071972 1.3671639110337969e-15
		2.9558610312277591 -0.6539625290807195 -2.9558610312277471
		-4.0406832449083351e-16 -0.6539625290807195 -4.180218758852412
		-2.9558610312277507 -0.6539625290807195 -2.9558610312277507
		;
createNode transform -n "lattice_SQS_ghost_Ctrl_Grp";
	rename -uid "132207FA-42C7-09E4-D077-6390BA9D7346";
	setAttr ".t" -type "double3" 3.9443045261050599e-31 0 0 ;
createNode transform -n "lattice_SQS_ghost_Ctrl_Grp_offset" -p "lattice_SQS_ghost_Ctrl_Grp";
	rename -uid "4151A025-4287-4301-C2B0-2F8CDC455ABA";
createNode transform -n "lattice_SQS_ghost_Ctrl" -p "lattice_SQS_ghost_Ctrl_Grp_offset";
	rename -uid "0F7CB5F6-485B-DAAB-7B80-AAAF45D4052C";
	setAttr -l on -k off ".v";
	setAttr ".rp" -type "double3" 1.7763568394002505e-15 25.405708176977139 -2.127977615405598 ;
	setAttr ".sp" -type "double3" 1.7763568394002505e-15 25.405708176977139 -2.127977615405598 ;
createNode nurbsCurve -n "lattice_SQS_ghost_CtrlShape" -p "lattice_SQS_ghost_Ctrl";
	rename -uid "BC4E3354-4106-2A90-92B2-F394949DB0B8";
	setAttr -k off ".v";
	setAttr ".ovdt" 2;
	setAttr ".ovc" 3;
	setAttr ".tw" yes;
	setAttr -s 17 ".cp[0:16]" -type "double3" -1.6037545230272858 5.886732766125867 
		1.3090850024781346 1.5626976538063087 5.8867327661258599 1.3090850024781346 1.5828395078361623 
		5.8867327661260802 1.0459003794042658 -1.5836126689974304 5.8867327661260802 1.0459003794042658 
		-1.6037545230272858 5.886732766125867 1.3090850024781346 -1.6037545230272858 5.8867327661258599 
		1.3090850024781346 1.5626976538063087 5.8867327661258599 1.3090850024781346 1.5626976538063087 
		5.8867327661258599 1.3090850024781346 -1.6037545230272858 5.886732766125867 1.3090850024781346 
		-1.6037545230272858 5.8867327661258599 1.3090850024781346 -1.5836126689974321 5.886732766126082 
		1.0459003794042658 -1.5836126689974304 5.8867327661260802 1.0459003794042658 1.5828395078361623 
		5.8867327661260802 1.0459003794042658 1.5828395078361641 5.8867327661260784 1.0459003794042658 
		-1.5836126689974321 5.886732766126082 1.0459003794042658 1.5828395078361641 5.8867327661260784 
		1.0459003794042658 1.5626976538063087 5.8867327661258599 1.3090850024781346;
createNode nurbsCurve -n "lattice_SQS_ghost_CtrlShapeOrig" -p "lattice_SQS_ghost_Ctrl";
	rename -uid "86E650A4-40CF-7995-C167-0FAF35FB7D7C";
	setAttr -k off ".v";
	setAttr ".io" yes;
	setAttr ".cc" -type "nurbsCurve" 
		1 16 0 no 3
		17 0 1 2 3 4 5 6 7 8 9 10 11 12 13 14 15 16
		17
		13.95273299404397 36.066139960524559 9.7998356690083597
		-13.952732994043965 36.066139960524552 9.7998356690083597
		-13.952732994043963 35.972971077719841 -11.936979707917658
		13.952732994043972 35.972971077719841 -11.936979707917658
		13.95273299404397 36.066139960524559 9.7998356690083597
		13.952732994043972 14.845582159007176 9.7582183181137339
		-13.952732994043963 14.845582159007172 9.7582183181137339
		-13.952732994043965 36.066139960524552 9.7998356690083597
		13.95273299404397 36.066139960524559 9.7998356690083597
		13.952732994043972 14.845582159007176 9.7582183181137339
		13.952732994043973 14.752413276202459 -11.978597058812511
		13.952732994043972 35.972971077719841 -11.936979707917658
		-13.952732994043963 35.972971077719841 -11.936979707917658
		-13.952732994043961 14.752413276202455 -11.978597058812511
		13.952732994043973 14.752413276202459 -11.978597058812511
		-13.952732994043961 14.752413276202455 -11.978597058812511
		-13.952732994043963 14.845582159007172 9.7582183181137339
		;
select -ne :time1;
	setAttr -av -k on ".cch";
	setAttr -av -cb on ".ihi";
	setAttr -av -k on ".nds";
	setAttr -cb on ".bnm";
	setAttr -k on ".o" 1;
	setAttr -av -k on ".unw" 1;
	setAttr -av -k on ".etw";
	setAttr -av -k on ".tps";
	setAttr -av -k on ".tms";
select -ne :hardwareRenderingGlobals;
	setAttr -av -k on ".ihi";
	setAttr ".otfna" -type "stringArray" 22 "NURBS Curves" "NURBS Surfaces" "Polygons" "Subdiv Surface" "Particles" "Particle Instance" "Fluids" "Strokes" "Image Planes" "UI" "Lights" "Cameras" "Locators" "Joints" "IK Handles" "Deformers" "Motion Trails" "Components" "Hair Systems" "Follicles" "Misc. UI" "Ornaments"  ;
	setAttr ".otfva" -type "Int32Array" 22 0 1 1 1 1 1
		 1 1 1 0 0 0 0 0 0 0 0 0
		 0 0 0 0 ;
	setAttr -av ".ta";
	setAttr -av ".tq";
	setAttr -av ".aoam";
	setAttr -av ".aora";
	setAttr -av ".hfs";
	setAttr -av ".hfe";
	setAttr -av ".mbe";
	setAttr -av -k on ".mbsof";
	setAttr ".fprt" yes;
select -ne :renderPartition;
	setAttr -av -k on ".cch";
	setAttr -cb on ".ihi";
	setAttr -av -k on ".nds";
	setAttr -cb on ".bnm";
	setAttr -s 2 ".st";
	setAttr -cb on ".an";
	setAttr -cb on ".pt";
select -ne :renderGlobalsList1;
	setAttr -k on ".cch";
	setAttr -cb on ".ihi";
	setAttr -k on ".nds";
	setAttr -cb on ".bnm";
select -ne :defaultShaderList1;
	setAttr -k on ".cch";
	setAttr -cb on ".ihi";
	setAttr -k on ".nds";
	setAttr -cb on ".bnm";
	setAttr -s 4 ".s";
select -ne :postProcessList1;
	setAttr -k on ".cch";
	setAttr -cb on ".ihi";
	setAttr -k on ".nds";
	setAttr -cb on ".bnm";
	setAttr -s 2 ".p";
select -ne :defaultRenderingList1;
	setAttr -k on ".ihi";
select -ne :initialShadingGroup;
	setAttr -av -k on ".cch";
	setAttr -cb on ".ihi";
	setAttr -av -k on ".nds";
	setAttr -cb on ".bnm";
	setAttr -k on ".mwc";
	setAttr -cb on ".an";
	setAttr -cb on ".il";
	setAttr -cb on ".vo";
	setAttr -cb on ".eo";
	setAttr -cb on ".fo";
	setAttr -cb on ".epo";
	setAttr -k on ".ro" yes;
select -ne :initialParticleSE;
	setAttr -av -k on ".cch";
	setAttr -cb on ".ihi";
	setAttr -av -k on ".nds";
	setAttr -cb on ".bnm";
	setAttr -k on ".mwc";
	setAttr -cb on ".an";
	setAttr -cb on ".il";
	setAttr -cb on ".vo";
	setAttr -cb on ".eo";
	setAttr -cb on ".fo";
	setAttr -cb on ".epo";
	setAttr -k on ".ro" yes;
select -ne :defaultRenderGlobals;
	setAttr -av -k on ".cch";
	setAttr -cb on ".ihi";
	setAttr -av -k on ".nds";
	setAttr -cb on ".bnm";
	setAttr -av -k on ".macc";
	setAttr -av -k on ".macd";
	setAttr -av -k on ".macq";
	setAttr -av -k on ".mcfr";
	setAttr -cb on ".ifg";
	setAttr -av -k on ".clip";
	setAttr -av -k on ".edm";
	setAttr -av -k on ".edl";
	setAttr -cb on ".ren";
	setAttr -av -k on ".esr";
	setAttr -av -k on ".ors";
	setAttr -cb on ".sdf";
	setAttr -av -k on ".outf";
	setAttr -av -cb on ".imfkey";
	setAttr -av -k on ".gama";
	setAttr -av -k on ".an";
	setAttr -k on ".ar";
	setAttr -k on ".fs" 1;
	setAttr -k on ".ef" 10;
	setAttr -av -k on ".bfs";
	setAttr -cb on ".me";
	setAttr -cb on ".se";
	setAttr -av -k on ".be";
	setAttr -av -cb on ".ep";
	setAttr -av -k on ".fec";
	setAttr -av -k on ".ofc";
	setAttr -cb on ".ofe";
	setAttr -cb on ".efe";
	setAttr -cb on ".oft";
	setAttr -cb on ".umfn";
	setAttr -cb on ".ufe";
	setAttr -av -k on ".pff";
	setAttr -av -cb on ".peie";
	setAttr -av -k on ".ifp";
	setAttr -k on ".rv";
	setAttr -av -k on ".comp";
	setAttr -av -k on ".cth";
	setAttr -av -k on ".soll";
	setAttr -cb on ".sosl";
	setAttr -av -k on ".rd";
	setAttr -av -k on ".lp";
	setAttr -av -k on ".sp";
	setAttr -av -k on ".shs";
	setAttr -av -k on ".lpr";
	setAttr -cb on ".gv";
	setAttr -cb on ".sv";
	setAttr -av -k on ".mm";
	setAttr -av -k on ".npu";
	setAttr -av -k on ".itf";
	setAttr -av -k on ".shp";
	setAttr -cb on ".isp";
	setAttr -av -k on ".uf";
	setAttr -av -k on ".oi";
	setAttr -av -k on ".rut";
	setAttr -av -k on ".mot";
	setAttr -av -k on ".mb";
	setAttr -av -k on ".mbf";
	setAttr -av -k on ".mbso";
	setAttr -av -k on ".mbsc";
	setAttr -av -k on ".afp";
	setAttr -av -k on ".pfb";
	setAttr -k on ".pram";
	setAttr -k on ".poam";
	setAttr -k on ".prlm";
	setAttr -k on ".polm";
	setAttr -cb on ".prm";
	setAttr -cb on ".pom";
	setAttr -cb on ".pfrm";
	setAttr -cb on ".pfom";
	setAttr -av -k on ".bll";
	setAttr -av -k on ".bls";
	setAttr -av -k on ".smv";
	setAttr -av -k on ".ubc";
	setAttr -av -k on ".mbc";
	setAttr -cb on ".mbt";
	setAttr -av -k on ".udbx";
	setAttr -av -k on ".smc";
	setAttr -av -k on ".kmv";
	setAttr -cb on ".isl";
	setAttr -cb on ".ism";
	setAttr -cb on ".imb";
	setAttr -av -k on ".rlen";
	setAttr -av -k on ".frts";
	setAttr -av -k on ".tlwd";
	setAttr -av -k on ".tlht";
	setAttr -av -k on ".jfc";
	setAttr -cb on ".rsb";
	setAttr -av -k on ".ope";
	setAttr -av -k on ".oppf";
	setAttr -av -k on ".rcp";
	setAttr -av -k on ".icp";
	setAttr -av -k on ".ocp";
	setAttr -k on ".hbl";
select -ne :defaultResolution;
	setAttr -av -k on ".cch";
	setAttr -av -k on ".ihi";
	setAttr -av -k on ".nds";
	setAttr -k on ".bnm";
	setAttr -av -k on ".w";
	setAttr -av -k on ".h";
	setAttr -av -k on ".pa" 1;
	setAttr -av -k on ".al";
	setAttr -av -k on ".dar";
	setAttr -av -k on ".ldar";
	setAttr -av -k on ".dpi";
	setAttr -av -k on ".off";
	setAttr -av -k on ".fld";
	setAttr -av -k on ".zsl";
	setAttr -av -k on ".isu";
	setAttr -av -k on ".pdu";
select -ne :hardwareRenderGlobals;
	setAttr -k on ".cch";
	setAttr -cb on ".ihi";
	setAttr -k on ".nds";
	setAttr -cb on ".bnm";
	setAttr -k off -cb on ".ctrs" 256;
	setAttr -av -k off -cb on ".btrs" 512;
	setAttr -k off -cb on ".fbfm";
	setAttr -k off -cb on ".ehql";
	setAttr -k off -cb on ".eams";
	setAttr -k off -cb on ".eeaa";
	setAttr -k off -cb on ".engm";
	setAttr -k off -cb on ".mes";
	setAttr -k off -cb on ".emb";
	setAttr -av -k off -cb on ".mbbf";
	setAttr -k off -cb on ".mbs";
	setAttr -k off -cb on ".trm";
	setAttr -k off -cb on ".tshc";
	setAttr -k off -cb on ".enpt";
	setAttr -k off -cb on ".clmt";
	setAttr -k off -cb on ".tcov";
	setAttr -k off -cb on ".lith";
	setAttr -k off -cb on ".sobc";
	setAttr -k off -cb on ".cuth";
	setAttr -k off -cb on ".hgcd";
	setAttr -k off -cb on ".hgci";
	setAttr -k off -cb on ".mgcs";
	setAttr -k off -cb on ".twa";
	setAttr -k off -cb on ".twz";
	setAttr -k on ".hwcc";
	setAttr -k on ".hwdp";
	setAttr -k on ".hwql";
	setAttr -k on ".hwfr";
	setAttr -k on ".soll";
	setAttr -k on ".sosl";
	setAttr -k on ".bswa";
	setAttr -k on ".shml";
	setAttr -k on ".hwel";
connectAttr "headSqs_move_CtrlShapeOrig2.ws" "headSqs_move_CtrlShape.cr";
connectAttr "headSqs_CtrlShapeOrig2.ws" "headSqs_CtrlShape.cr";
connectAttr "lattice_SQS_ghost_CtrlShapeOrig.ws" "lattice_SQS_ghost_CtrlShape.cr"
		;
// End of SQS_Ctrls_v002.ma
